Judul,PENJABARAN APBD
Daerah,Kabupaten Bantul
Tahun,2015
Kode Organisasi,1.2
Kolom,4


No. Rekening,Uraian,Jumlah,Keterangan
1.20 . 1.20.03 . 01 . 01 . 5 ,BELANJA ,905088625.00
1.20 . 1.20.03 . 01 . 01 . 5 . 2 ,BELANJA LANGSUNG ,905088625.00
1.20 . 1.20.03 . 01 ,Program Pelayanan Administrasi Perkantoran ,99385000.00
1.20 . 1.20.03 . 01 . 01 ,Penyediaan jasa surat menyurat ,2000000.00,Sumber Dana : 
,,,Lokasi Kegiatan : Kecamatan Bantul
,,,Keluaran :  Terlaksananya kegiatan surat menyurat
,,,Target:  300 materai
1.20 . 1.20.03 . 01 . 01 . 5 . 2 . 2 ,Belanja Barang dan Jasa ,2000000.00
1.20 . 1.20.03 . 01 . 01 . 5 . 2 . 2 . 01 ,Belanja Bahan Pakai Habis ,2000000.00
1.20 . 1.20.03 . 01 . 01 . 5 . 2 . 2 . 01 . 04 ,"Belanja Perangko, Materai Dan Benda Pos ",2000000.00,"Belanja perangko, materai dan benda pos lainnya"
,,,Belanja materai
,,,"300 buah x 6.000,00 = 1.800.000,00"
,,,Pengiriman surat
,,,"1 Ls x 200.000,00 = 200.000,00"
1.20 . 1.20.03 . 01 . 06 ,Penyediaan jasa pemeliharaan dan perizinan kendaraan dinas/operasional,2000000.00,Sumber Dana : 
,,,Lokasi Kegiatan : Kecamatan Bantul
,,,Keluaran :  Terlaksananya perpanjangan izin kendaraan dinas
,,,Target:  5 kendaraan
1.20 . 1.20.03 . 01 . 06 . 5 . 2 . 2 ,Belanja Barang dan Jasa ,2000000.00
1.20 . 1.20.03 . 01 . 06 . 5 . 2 . 2 . 05 ,Belanja Perawatan Kendaraan Bermotor ,2000000.00
1.20 . 1.20.03 . 01 . 06 . 5 . 2 . 2 . 05 . 05 ,Belanja Pajak Kendaraan Bermotor ,2000000.00,Belanja perpajangan STNK
,,,Belanja perpanjangan STNK 1 mobil dan 4 sepeda mootor
,,,"1 Ls x 2.000.000,00 = 2.000.000,00"
1.20 . 1.20.03 . 01 . 07 ,Penyediaan jasa administrasi keuangan ,17260000.00,Sumber Dana : 
,,,Lokasi Kegiatan : Kecamatan Bantul
,,,Keluaran :  Terlaksananya pengelolaan administrasi keuangan
,,,Target:  8 orang
1.20 . 1.20.03 . 01 . 07 . 5 . 2 . 1 ,Belanja Pegawai ,10260000.00
1.20 . 1.20.03 . 01 . 07 . 5 . 2 . 1 . 01 ,Honorarium PNS ,10260000.00
1.20 . 1.20.03 . 01 . 07 . 5 . 2 . 1 . 01 . 06 ,Honor Pengelola Keuangan dan Barang ,10260000.00,Honorarium Pengelola Keuangan dan Barang
,,,Honorarium Pengurus Barang Pembantu
,,,"12 bulan x 150.000,00 = 1.800.000,00"
,,,Honorarium Penyimpan Barang
,,,"12 bulan x 75.000,00 = 900.000,00"
,,,Honorarium Urusan Kepegawaian
,,,"12 bulan x 75.000,00 = 900.000,00"
,,,Honoraraium Bendahara Pengeluaran Pembantu
,,,"12 bulan x 150.000,00 = 1.800.000,00"
,,,Honorarium Pembuat Dokumen
,,,"36 bulan x 110.000,00 = 3.960.000,00"
,,,Honorarium Pengurus Gaji Pembantu
,,,"12 bulan x 75.000,00 = 900.000,00"
1.20 . 1.20.03 . 01 . 07 . 5 . 2 . 2 ,Belanja Barang dan Jasa ,7000000.00
1.20 . 1.20.03 . 01 . 07 . 5 . 2 . 2 . 01 ,Belanja Bahan Pakai Habis ,2000000.00
1.20 . 1.20.03 . 01 . 07 . 5 . 2 . 2 . 01 . 01 ,Belanja Alat Tulis Kantor ,2000000.00,"Belanja Alat Tulis Kantor (Kertas, tinta, ballpoint, pensil, mouse, flasdisk dll)"
,,,"Belanja Alat Tulis Kantor (Kertas, ballpoint, tinta, flasdisk, mouse dll)"
,,,"1 Ls x 2.000.000,00 = 2.000.000,00"
1.20 . 1.20.03 . 01 . 07 . 5 . 2 . 2 . 06 ,Belanja Cetak dan Penggandaan ,5000000.00
1.20 . 1.20.03 . 01 . 07 . 5 . 2 . 2 . 06 . 01 ,Belanja Cetak ,2100000.00,Belanja cetak (cetak bend 26 dan cetak map)
,,,Belanja cetak map
,,,"450 eks x 3.500,00 = 1.575.000,00"
,,,Belanja cetak bend 26
,,,"21 eks x 25.000,00 = 525.000,00"
1.20 . 1.20.03 . 01 . 07 . 5 . 2 . 2 . 06 . 02 ,Belanja Penggandaan ,2900000.00,"Belanja penggandaan lampiran SPJ, dokumen, surat dll"
,,,"23,200 lembar x 125,00 = 2.900.000,00"
1.20 . 1.20.03 . 01 . 08 ,Penyediaan jasa kebersihan kantor ,1200000.00,Sumber Dana : 
,,,Lokasi Kegiatan : Kecamatan Bantul
,,,Keluaran :  Terlaksananya penyediaan peralatan kebersihan
,,,Target:  4 paket
1.20 . 1.20.03 . 01 . 08 . 5 . 2 . 2 ,Belanja Barang dan Jasa ,1200000.00
1.20 . 1.20.03 . 01 . 08 . 5 . 2 . 2 . 01 ,Belanja Bahan Pakai Habis ,1200000.00
1.20 . 1.20.03 . 01 . 08 . 5 . 2 . 2 . 01 . 05 ,Belanja Peralatan Kebersihan Dan Bahan Pembersih ,1200000.00,"Belanja peralatan kebersihan dan bahan pembersih (sabun, cairan pembersih, sapu, sulak, tisu dll)"
,,,"Belanja peralatan kebersihan dan bahan pembersih (sabun, cairan pembersih, sulak, sapu, tisu dll)"
,,,"4 paket x 300.000,00 = 1.200.000,00"
1.20 . 1.20.03 . 01 . 09 ,Penyediaan jasa perbaikan peralatan kerja ,6000000.00,Sumber Dana : 
,,,Lokasi Kegiatan : Kecamatan Bantul
,,,Keluaran :  Terlaksananya pemeliharaan peralatan kantor
,,,Target:  33 buah
1.20 . 1.20.03 . 01 . 09 . 5 . 2 . 2 ,Belanja Barang dan Jasa ,6000000.00
1.20 . 1.20.03 . 01 . 09 . 5 . 2 . 2 . 20 ,Belanja Pemeliharaan ,6000000.00
1.20 . 1.20.03 . 01 . 09 . 5 . 2 . 2 . 20 . 04 ,Belanja Pemeliharan Peralatan dan Mesin ,6000000.00,"Belanja pemeliharaan peralatan dan mesin (komputer, printer, mesin ketik, risograf, laptop, AC dan scaner)"
,,,"Belanja pemeliharaan peralatan dan mesin (komputer, printer, mesin ketik, risograf, laptop, AC dan scaner)"
,,,"1 Ls x 6.000.000,00 = 6.000.000,00"
1.20 . 1.20.03 . 01 . 10 ,Penyediaan alat tulis kantor ,8000000.00,Sumber Dana : 
,,,Lokasi Kegiatan : Kecamatan Bantul
,,,Keluaran :  Terlaksananya penyediaan alat tulis kantor
,,,Target:  4 paket
1.20 . 1.20.03 . 01 . 10 . 5 . 2 . 2 ,Belanja Barang dan Jasa ,8000000.00
1.20 . 1.20.03 . 01 . 10 . 5 . 2 . 2 . 01 ,Belanja Bahan Pakai Habis ,8000000.00
1.20 . 1.20.03 . 01 . 10 . 5 . 2 . 2 . 01 . 01 ,Belanja Alat Tulis Kantor ,8000000.00,"Belanja ATK (kertas, tinta, isi toner, spidol, bolpoint, pensil dll)"
,,,"Belanja ATK (Kertas, tinta, isi toner, spidol, ballpoint, pensil dll)"
,,,"4 paket x 2.000.000,00 = 8.000.000,00"
1.20 . 1.20.03 . 01 . 11 ,Penyediaan barang cetakan dan penggandaan ,8000000.00,Sumber Dana : 
,,,Lokasi Kegiatan : Kecamatan Bantul
,,,Keluaran :  Terlaksananya penyediaan barang cetakan dan penggandaan
,,,Target:  40.010 eksemplar
1.20 . 1.20.03 . 01 . 11 . 5 . 2 . 2 ,Belanja Barang dan Jasa ,8000000.00
1.20 . 1.20.03 . 01 . 11 . 5 . 2 . 2 . 06 ,Belanja Cetak dan Penggandaan ,8000000.00
1.20 . 1.20.03 . 01 . 11 . 5 . 2 . 2 . 06 . 01 ,Belanja Cetak ,3000000.00,Belanja cetak
,,,Belanja cetak kop garuda emas
,,,"10 rim x 300.000,00 = 3.000.000,00"
1.20 . 1.20.03 . 01 . 11 . 5 . 2 . 2 . 06 . 02 ,Belanja Penggandaan ,5000000.00,Belanja Penggandaan
,,,Belanja Penggandaan Surat-surat dan Dokumen lainnya
,,,"125 Lembar x 40.000,00 = 5.000.000,00"
1.20 . 1.20.03 . 01 . 15 ,Penyediaan bahan bacaan dan peraturan perundang-undangan ,9200000.00,Sumber Dana : 
,,,Lokasi Kegiatan : Kecamatan Bantul
,,,Keluaran :  Terlaksananya penyediaan bahan bacaan PUU
,,,Target:  64 eksemplar
1.20 . 1.20.03 . 01 . 15 . 5 . 2 . 2 ,Belanja Barang dan Jasa ,3600000.00
1.20 . 1.20.03 . 01 . 15 . 5 . 2 . 2 . 03 ,Belanja Jasa Kantor ,3600000.00
1.20 . 1.20.03 . 01 . 15 . 5 . 2 . 2 . 03 . 05 ,Belanja Surat Kabar/Majalah ,3600000.00,Belanja surat kabar dan majalah
,,,Kedaulatan Rakyat
,,,"12 bulan x 100.000,00 = 1.200.000,00"
,,,Jawa Pos
,,,"12 bulan x 110.000,00 = 1.320.000,00"
,,,Republika
,,,"12 bulan x 90.000,00 = 1.080.000,00"
1.20 . 1.20.03 . 01 . 15 . 5 . 2 . 3 ,Belanja Modal ,5600000.00
1.20 . 1.20.03 . 01 . 15 . 5 . 2 . 3 . 82 ,Belanja Modal Aset Tetap Lainnya - Pengadaan Buku ,3000000.00
1.20 . 1.20.03 . 01 . 15 . 5 . 2 . 3 . 82 . 01 ,Belanja Modal Aset Tetap Lainnya - Pengadaan Buku Ilmu Pengetahuan Umum,3000000.00,Belanja Buku Peraturan Perundang-undangan
,,,Belanja buku PUU
,,,"4 eks x 750.000,00 = 3.000.000,00"
1.20 . 1.20.03 . 01 . 15 . 5 . 2 . 3 . 83 ,Belanja Modal Aset Tetap Lainnya - Pengadaan Terbitan ,2600000.00
1.20 . 1.20.03 . 01 . 15 . 5 . 2 . 3 . 83 . 01 ,Belanja Modal Aset Tetap Lainnya - Pengadaan Terbitan Berkala ,2600000.00,Pengadaan Warta Perundang-undangan
,,,Belanja terbitan warta perundang-undangan
,,,"1 tahun x 2.600.000,00 = 2.600.000,00"
1.20 . 1.20.03 . 01 . 17 ,Penyediaan makanan dan minuman ,1500000.00,Sumber Dana : 
,,,Lokasi Kegiatan : Kecamatan Bantul
,,,Keluaran :  Terlaksananya penyediaan makan dan minum tamu
,,,Target:  105 orang
1.20 . 1.20.03 . 01 . 17 . 5 . 2 . 2 ,Belanja Barang dan Jasa ,1500000.00
1.20 . 1.20.03 . 01 . 17 . 5 . 2 . 2 . 11 ,Belanja Makanan dan  Minuman ,1500000.00
1.20 . 1.20.03 . 01 . 17 . 5 . 2 . 2 . 11 . 03 ,Belanja Makanan Dan Minuman Tamu ,1500000.00,Belanja makan dan minum tamu
,,,Belanja snack dan minum tamu
,,,"60 orang x 10.000,00 = 600.000,00"
,,,"45 orang x 20.000,00 = 900.000,00"
1.20 . 1.20.03 . 01 . 18 ,Rapat-rapat koordinasi dan konsultasi ke luar daerah ,44225000.00,Sumber Dana : 
,,,Lokasi Kegiatan : Kecamatan Bantul
,,,Keluaran :  Terlaksananya kegiatan konsultasi ke luar daerah
,,,Target:  9 kali
1.20 . 1.20.03 . 01 . 18 . 5 . 2 . 2 ,Belanja Barang dan Jasa ,44225000.00
1.20 . 1.20.03 . 01 . 18 . 5 . 2 . 2 . 15 ,Belanja Perjalanan Dinas ,44225000.00
1.20 . 1.20.03 . 01 . 18 . 5 . 2 . 2 . 15 . 02 ,Belanja Perjalanan Dinas Luar Daerah ,44225000.00,Belanja perjalanan dinas luar daerah
,,,Transport Gol III
,,,"5 pp x 825.000,00 = 4.125.000,00"
,,,Gol IV
,,,"8 oh x 1.700.000,00 = 13.600.000,00"
,,,Gol III
,,,"10 oh x 1.550.000,00 = 15.500.000,00"
,,,Transport Gol IV PP
,,,"4 pp x 2.750.000,00 = 11.000.000,00"
1.20 . 1.20.03 . 02 ,Program Peningkatan Sarana dan Prasarana Aparatur ,35500000.00
1.20 . 1.20.03 . 02 . 24 ,Pemeliharaan rutin/berkala kendaraan dinas/operasional ,29500000.00,Sumber Dana : 
,,,Lokasi Kegiatan : Kecamatan Bantul
,,,Keluaran :  Terlaksanana pemeliharaan kendaraan dinas operasional
,,,Target:  5 kendaraan
1.20 . 1.20.03 . 02 . 24 . 5 . 2 . 2 ,Belanja Barang dan Jasa ,29500000.00
1.20 . 1.20.03 . 02 . 24 . 5 . 2 . 2 . 05 ,Belanja Perawatan Kendaraan Bermotor ,29500000.00
1.20 . 1.20.03 . 02 . 24 . 5 . 2 . 2 . 05 . 01 ,Belanja Jasa Service ,2600000.00,Belanja  jasa servis kendaraan dinas operasional
,,,Kendaraan roda 4
,,,"4 kali x 500.000,00 = 2.000.000,00"
,,,kendaraan roda 2
,,,"6 kali x 100.000,00 = 600.000,00"
1.20 . 1.20.03 . 02 . 24 . 5 . 2 . 2 . 05 . 02 ,Belanja Penggantian Suku Cadang ,6000000.00,Belanja suku cadang kendaraan dinas operasional
,,,Kendaraan dinas roda 4 dan roda 2
,,,"1 Ls x 6.000.000,00 = 6.000.000,00"

1.20 . 1.20.03 . 02 . 24 . 5 . 2 . 2 . 05 . 03 ,Belanja Bahan Bakar Minyak/Gas Dan Pelumas ,20900000.00,Belanja BBM kendaraan dinas operasional
,,,BBM kendaraan dinas operasional
,,,"1,900 liter x 11.000,00 = 20.900.000,00"
1.20 . 1.20.03 . 02 . 34 ,Pengadaan peralatan dan perlengkapan kantor ,6000000.00,Sumber Dana : 
,,,Lokasi Kegiatan : Kecamatan Bantul
,,,Keluaran :  Terlaksananya penyediaan noteboook dan hardisk eksternal
,,,Target:  3 buah
1.20 . 1.20.03 . 02 . 34 . 5 . 2 . 3 ,Belanja Modal ,6000000.00
1.20 . 1.20.03 . 02 . 34 . 5 . 2 . 3 . 29 ,Belanja Modal Peralatan dan Mesin - Pengadaan  Komputer ,6000000.00
1.20 . 1.20.03 . 02 . 34 . 5 . 2 . 3 . 29 . 02 ,Belanja Modal Peralatan dan Mesin - Pengadaan Personal Komputer ,6000000.00,Belanja modal peralatan mesin-pengadaan personal komputer (notebook)
,,,Belanja modal peralatan mesin-pengadaan personal komputer (notebook)
,,,"1 buah x 5.000.000,00 = 5.000.000,00"
,,,Belanja modal pengadaan hard disk eksternal
,,,Belanja pengadaan hardisk eksternal
,,,"2 buah x 500.000,00 = 1.000.000,00"
1.06 . 1.20.03 . 21 ,Program perencanaan pembangunan daerah ,5000000.00
1.06 . 1.20.03 . 21 . 08 ,Penyusunan rancangan RKPD ,5000000.00,Sumber Dana : 
,,,Lokasi Kegiatan : Kecamatan Bantul
,,,Keluaran :  Terlaksananya penyusunan Renja SKPD
,,,Target:  1 dokumen Renja SKPD
1.06 . 1.20.03 . 21 . 08 . 5 . 2 . 1 ,Belanja Pegawai ,2225000.00
1.06 . 1.20.03 . 21 . 08 . 5 . 2 . 1 . 01 ,Honorarium PNS ,2225000.00
1.06 . 1.20.03 . 21 . 08 . 5 . 2 . 1 . 01 . 01 ,Honorarium Panitia Pelaksana Kegiatan ,2225000.00,Honor penyusunan rancangan RKPD
,,,Ketua
,,,"1 ok x 375.000,00 = 375.000,00"
,,,Sekretaris
,,,"1 ok x 350.000,00 = 350.000,00"
,,,Anggota
,,,"5 ok x 300.000,00 = 1.500.000,00"
1.06 . 1.20.03 . 21 . 08 . 5 . 2 . 2 ,Belanja Barang dan Jasa ,2775000.00
1.06 . 1.20.03 . 21 . 08 . 5 . 2 . 2 . 01 ,Belanja Bahan Pakai Habis ,1000000.00
1.06 . 1.20.03 . 21 . 08 . 5 . 2 . 2 . 01 . 01 ,Belanja Alat Tulis Kantor ,1000000.00,"Belanja ATK (Kertas, mas, spidol, ballpoint, pensil dll)"
,,,"Belanja ATK (kertas, spidol, map, tinta, ballpoint, pensil dll)"
,,,"1 Ls x 1.000.000,00 = 1.000.000,00"
1.06 . 1.20.03 . 21 . 08 . 5 . 2 . 2 . 06 ,Belanja Cetak dan Penggandaan ,1062500.00
1.06 . 1.20.03 . 21 . 08 . 5 . 2 . 2 . 06 . 02 ,Belanja Penggandaan ,1062500.00,Belanja penggandaan surat penting
,,,Belanja penggandaan
,,,"8,500 lembar x 125,00 = 1.062.500,00"
1.06 . 1.20.03 . 21 . 08 . 5 . 2 . 2 . 11 ,Belanja Makanan dan  Minuman ,712500.00
1.06 . 1.20.03 . 21 . 08 . 5 . 2 . 2 . 11 . 02 ,Belanja Makanan Dan Minuman Rapat ,712500.00,Belanja makan dan minum rapat
,,,"25 ok x 20.000,00 = 500.000,00"
,,,Belanja snack dan minum rapat
,,,"25 ok x 8.500,00 = 212.500,00"
1.20 . 1.20.03 . 26 ,Program Penataan Peraturan Perundang-Undangan ,765203625.00
1.20 . 1.20.03 . 26 . 01 ,Koordinasi kerjasama permasalahan peraturan perundang-undangan ,39697625.00,Sumber Dana : 
,,,Lokasi Kegiatan : Kecamatan
,,,Keluaran :  Terlaksananya koordinasi kerjasama penanganan permasalahan hukum 
,,,Target:  20 buah
1.20 . 1.20.03 . 26 . 01 . 5 . 2 . 1 ,Belanja Pegawai ,24360000.00
1.20 . 1.20.03 . 26 . 01 . 5 . 2 . 1 . 01 ,Honorarium PNS ,24360000.00
1.20 . 1.20.03 . 26 . 01 . 5 . 2 . 1 . 01 . 01 ,Honorarium Panitia Pelaksana Kegiatan ,24360000.00,Honor panitia pelaksana kegiatan
,,,Ketua
,,,"12 ob x 170.000,00 = 2.040.000,00"
,,,Sekretaris
,,,"12 ob x 160.000,00 = 1.920.000,00"
,,,Anggota
,,,"120 ob x 130.000,00 = 15.600.000,00"
,,,Staf Sekretariat
,,,"48 ob x 100.000,00 = 4.800.000,00"
1.20 . 1.20.03 . 26 . 01 . 5 . 2 . 2 ,Belanja Barang dan Jasa ,15337625.00
1.20 . 1.20.03 . 26 . 01 . 5 . 2 . 2 . 01 ,Belanja Bahan Pakai Habis ,1650000.00
1.20 . 1.20.03 . 26 . 01 . 5 . 2 . 2 . 01 . 01 ,Belanja Alat Tulis Kantor ,1650000.00,"Belanja ATK (kertas, tinta, map, spidol, ballpoint, pensil dll)"
,,,"Belanja ATK (kertas, tinta, spidol, ballpoint, pensil dll)"
,,,"1 Ls x 1.650.000,00 = 1.650.000,00"
1.20 . 1.20.03 . 26 . 01 . 5 . 2 . 2 . 06 ,Belanja Cetak dan Penggandaan ,1995625.00
1.20 . 1.20.03 . 26 . 01 . 5 . 2 . 2 . 06 . 02 ,Belanja Penggandaan ,1995625.00,Belanja penggandaan surat penting
,,,Belanja penggandaan
,,,"15,965 lembar x 125,00 = 1.995.625,00"
1.20 . 1.20.03 . 26 . 01 . 5 . 2 . 2 . 11 ,Belanja Makanan dan  Minuman ,3300000.00
1.20 . 1.20.03 . 26 . 01 . 5 . 2 . 2 . 11 . 02 ,Belanja Makanan Dan Minuman Rapat ,3300000.00,Belanja makan dan minum rapat
,,,Belanja snack dan minum rapat
,,,"200 ok x 8.500,00 = 1.700.000,00"
,,,"80 ok x 20.000,00 = 1.600.000,00"
1.20 . 1.20.03 . 26 . 01 . 5 . 2 . 2 . 15 ,Belanja Perjalanan Dinas ,8392000.00
1.20 . 1.20.03 . 26 . 01 . 5 . 2 . 2 . 15 . 01 ,Belanja Perjalanan Dinas Dalam Daerah ,2510000.00,Belanja perjalanan dinas dalam daerah
,,,Gol IV
,,,"3 oh x 70.000,00 = 210.000,00"
,,,Gol III
,,,"30 oh x 60.000,00 = 1.800.000,00"
,,,Go II
,,,"10 oh x 50.000,00 = 500.000,00"
1.20 . 1.20.03 . 26 . 01 . 5 . 2 . 2 . 15 . 02 ,Belanja Perjalanan Dinas Luar Daerah ,5882000.00,Belanja perjalanan dinas luar daerah
,,,Gol III
,,,"3 oh x 1.550.000,00 = 4.650.000,00"
,,,Transport Gol III
,,,"2 pp x 616.000,00 = 1.232.000,00"
1.20 . 1.20.03 . 26 . 03 ,Legislasi rancangan peraturan perundang-undangan ,246600000.00,Sumber Dana : 
,,,Lokasi Kegiatan : Kecamatan Bantul
,,,Keluaran :  Terlaksananya penyusunan Peraturan Daerah
,,,Target:  26 Rancangan Peraturan Daerah
1.20 . 1.20.03 . 26 . 03 . 5 . 2 . 1 ,Belanja Pegawai ,125100000.00
1.20 . 1.20.03 . 26 . 03 . 5 . 2 . 1 . 01 ,Honorarium PNS ,125100000.00
1.20 . 1.20.03 . 26 . 03 . 5 . 2 . 1 . 01 . 01 ,Honorarium Panitia Pelaksana Kegiatan ,125100000.00,Honor Penyusun Raperda

,,,Anggota
,,,"208 ok/raperda x 400.000,00 = 83.200.000,00"
,,,Anggota
,,,"3 tahun x 600.000,00 = 1.800.000,00"
,,,Tim Teknis
,,,Ketua/Koordinator
,,,"52 Ok/Raperda x 500.000,00 = 26.000.000,00"
,,,Sekretaris
,,,"26 ok/raperda x 450.000,00 = 11.700.000,00"
,,,Tim Pengarah (1 tahun)
,,,Pembina
,,,"1 tahun x 900.000,00 = 900.000,00"
,,,Wakil Pembina
,,,"1 tahun x 800.000,00 = 800.000,00"
,,,Pengarah/Penasehat
,,,"1 tahun x 700.000,00 = 700.000,00"
1.20 . 1.20.03 . 26 . 03 . 5 . 2 . 2 ,Belanja Barang dan Jasa ,121500000.00
1.20 . 1.20.03 . 26 . 03 . 5 . 2 . 2 . 01 ,Belanja Bahan Pakai Habis ,8500000.00
1.20 . 1.20.03 . 26 . 03 . 5 . 2 . 2 . 01 . 01 ,Belanja Alat Tulis Kantor ,8500000.00,"Belanja ATK (kertas, tinta, flaskdisk, spidol, ballpoint, pensil, map dll)"
,,,Belanja ATK
,,,"1 Ls x 8.500.000,00 = 8.500.000,00"
1.20 . 1.20.03 . 26 . 03 . 5 . 2 . 2 . 06 ,Belanja Cetak dan Penggandaan ,13000000.00
1.20 . 1.20.03 . 26 . 03 . 5 . 2 . 2 . 06 . 01 ,Belanja Cetak ,3000000.00,Belanja Cetak
,,,"1 Ls x 3.000.000,00 = 3.000.000,00"
1.20 . 1.20.03 . 26 . 03 . 5 . 2 . 2 . 06 . 02 ,Belanja Penggandaan ,10000000.00,Belanja penggandaan
,,,"80,000 lembar x 125,00 = 10.000.000,00"
1.20 . 1.20.03 . 26 . 03 . 5 . 2 . 2 . 11 ,Belanja Makanan dan  Minuman ,13100000.00
1.20 . 1.20.03 . 26 . 03 . 5 . 2 . 2 . 11 . 02 ,Belanja Makanan Dan Minuman Rapat ,13100000.00,Belanja makan dan minum rapat
,,,"400 ok x 20.000,00 = 8.000.000,00"
,,,Belanja snack dan minum rapat
,,,"600 ok x 8.500,00 = 5.100.000,00"
1.20 . 1.20.03 . 26 . 03 . 5 . 2 . 2 . 15 ,Belanja Perjalanan Dinas ,86900000.00
1.20 . 1.20.03 . 26 . 03 . 5 . 2 . 2 . 15 . 01 ,Belanja Perjalanan Dinas Dalam Daerah ,9350000.00,Belanja perjalanan dinas dalam daerah
,,,Gol IV
,,,"30 op x 70.000,00 = 2.100.000,00"
,,,Gol III
,,,"100 op x 60.000,00 = 6.000.000,00"
,,,Gol II
,,,"25 op x 50.000,00 = 1.250.000,00"
1.20 . 1.20.03 . 26 . 03 . 5 . 2 . 2 . 15 . 02 ,Belanja Perjalanan Dinas Luar Daerah ,77550000.00,Belanja perjalanan dinas luar daerah
,,,Transport Gol III
,,,"8 pp x 2.750.000,00 = 22.000.000,00"
,,,Gol IV
,,,"10 op x 1.700.000,00 = 17.000.000,00"
,,,Gol III
,,,"16 op x 1.550.000,00 = 24.800.000,00"
,,,Transport Gol IV
,,,"5 pp x 2.750.000,00 = 13.750.000,00"
1.20 . 1.20.03 . 26 . 04 ,Fasilitasi sosialisasi peraturan perundang-undangan ,62302000.00,Sumber Dana : 
,,,Lokasi Kegiatan : Kecamatan Bantul
,,,Keluaran :  Terlaksananya sosialisasi PUU
,,,Target:  4 angkatan sosialisasi PUU
1.20 . 1.20.03 . 26 . 04 . 5 . 2 . 1 ,Belanja Pegawai ,7420000.00
1.20 . 1.20.03 . 26 . 04 . 5 . 2 . 1 . 01 ,Honorarium PNS ,7420000.00
1.20 . 1.20.03 . 26 . 04 . 5 . 2 . 1 . 01 . 01 ,Honorarium Panitia Pelaksana Kegiatan ,7420000.00,Honor panitia pelaksana kegiatan
,,,Ketua
,,,"4 ok x 150.000,00 = 600.000,00"
,,,Sekretaris
,,,"4 ok x 130.000,00 = 520.000,00"
,,,Anggota Gol III/IV
,,,"40 0k x 120.000,00 = 4.800.000,00"
,,,Golongan II
,,,"15 0k x 100.000,00 = 1.500.000,00"
1.20 . 1.20.03 . 26 . 04 . 5 . 2 . 2 ,Belanja Barang dan Jasa ,54882000.00
1.20 . 1.20.03 . 26 . 04 . 5 . 2 . 2 . 01 ,Belanja Bahan Pakai Habis ,4000000.00
1.20 . 1.20.03 . 26 . 04 . 5 . 2 . 2 . 01 . 01 ,Belanja Alat Tulis Kantor ,4000000.00,"Belanja ATK (kertas, blocknote, tinta, map, ballpoint, spidol, pensil dll)"
,,,"Belanja ATK (kertas, blocknote, tinta, map, spidol, pensil, map dll)"
,,,"4 Ls x 1.000.000,00 = 4.000.000,00"
1.20 . 1.20.03 . 26 . 04 . 5 . 2 . 2 . 03 ,Belanja Jasa Kantor ,800000.00
1.20 . 1.20.03 . 26 . 04 . 5 . 2 . 2 . 03 . 13 ,Belanja Dokumentasi ,0.00,Belanja dokumentasi
,,,"0 kali x 0,00 = 0,00"
1.20 . 1.20.03 . 26 . 04 . 5 . 2 . 2 . 03 . 14 ,Belanja Dekorasi ,800000.00,Belanja dekorasi
,,,"4 kali x 200.000,00 = 800.000,00"
1.20 . 1.20.03 . 26 . 04 . 5 . 2 . 2 . 06 ,Belanja Cetak dan Penggandaan ,5000000.00
1.20 . 1.20.03 . 26 . 04 . 5 . 2 . 2 . 06 . 02 ,Belanja Penggandaan ,5000000.00,Belanja penggandaan
,,,"40,000 lembar x 125,00 = 5.000.000,00"
1.20 . 1.20.03 . 26 . 04 . 5 . 2 . 2 . 11 ,Belanja Makanan dan  Minuman ,12450000.00
1.20 . 1.20.03 . 26 . 04 . 5 . 2 . 2 . 11 . 02 ,Belanja Makanan Dan Minuman Rapat ,2450000.00,belanja makan dan minum rapat
,,,Belanja sncak dan minum rapat
,,,"100 ok x 8.500,00 = 850.000,00"
,,,"80 ok x 20.000,00 = 1.600.000,00"
1.20 . 1.20.03 . 26 . 04 . 5 . 2 . 2 . 11 . 05 ,Belanja Makanan dan Minuman Pelaksanaan Kegiatan ,10000000.00,Belanja makan dan minum pelaksanaan kegiatan
,,,"400 ok x 25.000,00 = 10.000.000,00"
1.20 . 1.20.03 . 26 . 04 . 5 . 2 . 2 . 15 ,Belanja Perjalanan Dinas ,15432000.00
1.20 . 1.20.03 . 26 . 04 . 5 . 2 . 2 . 15 . 01 ,Belanja Perjalanan Dinas Dalam Daerah ,3320000.00,Belanja perjalanan dinas dalam daerah
,,,Gol IV
,,,"1 op x 70.000,00 = 70.000,00"
,,,Gol III
,,,"45 op x 60.000,00 = 2.700.000,00"
,,,Gol II
,,,"11 op x 50.000,00 = 550.000,00"
1.20 . 1.20.03 . 26 . 04 . 5 . 2 . 2 . 15 . 02 ,Belanja Perjalanan Dinas Luar Daerah ,12112000.00,Belanja perjalanan dinas luar daerah
,,,Gol III
,,,"8 op x 1.250.000,00 = 10.000.000,00"
,,,Transport gol III
,,,"4 pp x 528.000,00 = 2.112.000,00"
1.20 . 1.20.03 . 26 . 04 . 5 . 2 . 2 . 35 ,"Jasa Narasumber, Tenaga Ahli, Yuri, Entry Data, Petugas Fogging dan Petugas Lapangan",17200000.00
1.20 . 1.20.03 . 26 . 04 . 5 . 2 . 2 . 35 . 01 ,Jasa Nara Sumber/Moderator/Tenaga Ahli ,7200000.00,Honorarium narasumber/tenaga ahli
,,,Honor narasumber
,,,"16 ok x 400.000,00 = 6.400.000,00"
,,,Honorarium moderator
,,,Honor moderator
,,,"4 ok x 200.000,00 = 800.000,00"
1.20 . 1.20.03 . 26 . 04 . 5 . 2 . 2 . 35 . 05 ,Jasa Peserta Seminar/Simposium /Workshop/Sosialisasi ,10000000.00,Honorarium peserta sosialisasi
,,,Honor peserta
,,,"400 ok x 25.000,00 = 10.000.000,00"
,,,Sumber Dana : 
1.20 . 1.20.03 . 26 . 05 ,Publikasi peraturan perundang-undangan ,91250000.00,Lokasi Kegiatan : Kecamatan Bantul
,,,Keluaran :  Terlaksananya publikasi PUU
,,,"Target:  3 1 kali cetak LD, dan 2 kali publikasi "
,,,PUU
1.20 . 1.20.03 . 26 . 05 . 5 . 2 . 1 ,Belanja Pegawai ,36600000.00
1.20 . 1.20.03 . 26 . 05 . 5 . 2 . 1 . 01 ,Honorarium PNS ,36600000.00
1.20 . 1.20.03 . 26 . 05 . 5 . 2 . 1 . 01 . 01 ,Honorarium Panitia Pelaksana Kegiatan ,36600000.00,Honor panitia pelaksana kegiatan
,,,Ketua
,,,"12 ob x 160.000,00 = 1.920.000,00"
,,,Sekretaris
,,,"12 ob x 150.000,00 = 1.800.000,00"
,,,Anggota Gol III/IV
,,,"132 ob x 140.000,00 = 18.480.000,00"
,,,Anggota Gol II
,,,"36 ob x 100.000,00 = 3.600.000,00"
,,,Honor petugas JDI  Kecamatan dan Setwan
,,,"216 ob x 50.000,00 = 10.800.000,00"
1.20 . 1.20.03 . 26 . 05 . 5 . 2 . 2 ,Belanja Barang dan Jasa ,54650000.00
1.20 . 1.20.03 . 26 . 05 . 5 . 2 . 2 . 01 ,Belanja Bahan Pakai Habis ,7480000.00
1.20 . 1.20.03 . 26 . 05 . 5 . 2 . 2 . 01 . 01 ,Belanja Alat Tulis Kantor ,7480000.00,"Belanja ATK (kertas, tinta, map, spidol, pensil, ballpoint dll)"
,,,Belanja ATK
,,,"1 Ls x 7.480.000,00 = 7.480.000,00"
1.20 . 1.20.03 . 26 . 05 . 5 . 2 . 2 . 03 ,Belanja Jasa Kantor ,6000000.00
1.20 . 1.20.03 . 26 . 05 . 5 . 2 . 2 . 03 . 15 ,Belanja Publikasi ,6000000.00,Belanja publikasi di Bantul Radio
,,,Belanja Publikasi di radio
,,,"12 kali x 500.000,00 = 6.000.000,00"
1.20 . 1.20.03 . 26 . 05 . 5 . 2 . 2 . 06 ,Belanja Cetak dan Penggandaan ,33362500.00
1.20 . 1.20.03 . 26 . 05 . 5 . 2 . 2 . 06 . 01 ,Belanja Cetak ,26250000.00,Belanja cetak LD
,,,Honor PPK
,,,"1 ok x 300.000,00 = 300.000,00"
,,,Honor Pejabat Pengadaan
,,,"1 ok x 250.000,00 = 250.000,00"
,,,Honor Pejabat Penerima
,,,"1 ok x 200.000,00 = 200.000,00"
,,,Belanja cetak buku LD
,,,"170 eks x 150.000,00 = 25.500.000,00"
1.20 . 1.20.03 . 26 . 05 . 5 . 2 . 2 . 06 . 02 ,Belanja Penggandaan ,7112500.00,Belanja penggandaan
,,,"56,900 lembar x 125,00 = 7.112.500,00"
1.20 . 1.20.03 . 26 . 05 . 5 . 2 . 2 . 11 ,Belanja Makanan dan  Minuman ,2637500.00
1.20 . 1.20.03 . 26 . 05 . 5 . 2 . 2 . 11 . 02 ,Belanja Makanan Dan Minuman Rapat ,2637500.00,Belanja makan dan minum rapat
,,,Belanja snack dan minum rapat
,,,"75 ok x 8.500,00 = 637.500,00"
,,,"100 ok x 20.000,00 = 2.000.000,00"
1.20 . 1.20.03 . 26 . 05 . 5 . 2 . 2 . 15 ,Belanja Perjalanan Dinas ,4210000.00
1.20 . 1.20.03 . 26 . 05 . 5 . 2 . 2 . 15 . 01 ,Belanja Perjalanan Dinas Dalam Daerah ,4210000.00,Belanja perjalanan dinas dalam daerah
,,,Gol IV
,,,"3 op x 70.000,00 = 210.000,00"
,,,Gol III
,,,"60 op x 60.000,00 = 3.600.000,00"
,,,Gol II
,,,"8 op x 50.000,00 = 400.000,00"
1.20 . 1.20.03 . 26 . 05 . 5 . 2 . 2 . 35 ,"Jasa Narasumber, Tenaga Ahli, Yuri, Entry Data, Petugas Fogging dan Petugas Lapangan",960000.00
1.20 . 1.20.03 . 26 . 05 . 5 . 2 . 2 . 35 . 01 ,Jasa Nara Sumber/Moderator/Tenaga Ahli ,960000.00,Honorarium narasumber talk show
,,,Honor talk show
,,,"12 ok x 80.000,00 = 960.000,00"
1.20 . 1.20.03 . 26 . 06 ,"Kajian peraturan perundang-undangan daerah terhadap peraturan perundang-undangan yang baru, lebih tinggi dan keserasian antar peraturan peundang-undangan daerah",49260000.00,Sumber Dana : 
,,,Lokasi Kegiatan : Kecamatan Bantul
,,,Keluaran :  Terlaksananya kajian penyusunan Raperda dan peraturan perundang-undangan lainnya
,,,Target:  6 angkatan kajian PUU
1.20 . 1.20.03 . 26 . 06 . 5 . 2 . 1 ,Belanja Pegawai ,4320000.00
1.20 . 1.20.03 . 26 . 06 . 5 . 2 . 1 . 01 ,Honorarium PNS ,4320000.00
1.20 . 1.20.03 . 26 . 06 . 5 . 2 . 1 . 01 . 01 ,Honorarium Panitia Pelaksana Kegiatan ,4320000.00,Honor pelaksana kegiatan
,,,ketua/koordinator
,,,"4 OA x 170.000,00 = 680.000,00"
,,,Sekretaris
,,,"4 OA x 160.000,00 = 640.000,00"
,,,Anggota
,,,"20 OA x 150.000,00 = 3.000.000,00"
1.20 . 1.20.03 . 26 . 06 . 5 . 2 . 2 ,Belanja Barang dan Jasa ,44940000.00
1.20 . 1.20.03 . 26 . 06 . 5 . 2 . 2 . 01 ,Belanja Bahan Pakai Habis ,4000000.00
1.20 . 1.20.03 . 26 . 06 . 5 . 2 . 2 . 01 . 01 ,Belanja Alat Tulis Kantor ,4000000.00,"Belanja Alat Tulis Kantor (kertas, tinta, flaskdisk, map, blocknote, ballpoint, pensil dll)"
,,,"Belanja Alat Tulis Kantor (kertas, tinta, flaskdisk, map, blocknote, ballpoint, pensil dll)"
,,,"1 LS x 4.000.000,00 = 4.000.000,00"
1.20 . 1.20.03 . 26 . 06 . 5 . 2 . 2 . 03 ,Belanja Jasa Kantor ,0.00
1.20 . 1.20.03 . 26 . 06 . 5 . 2 . 2 . 03 . 13 ,Belanja Dokumentasi ,0.00,belanja dokumentasi
,,,"0 paket x 0,00 = 0,00"
1.20 . 1.20.03 . 26 . 06 . 5 . 2 . 2 . 06 ,Belanja Cetak dan Penggandaan ,4290000.00
1.20 . 1.20.03 . 26 . 06 . 5 . 2 . 2 . 06 . 02 ,Belanja Penggandaan ,4290000.00,belanja penggadaan
,,,belanja penggandaan
,,,"34,320 lembar x 125,00 = 4.290.000,00"
1.20 . 1.20.03 . 26 . 06 . 5 . 2 . 2 . 11 ,Belanja Makanan dan  Minuman ,11000000.00
1.20 . 1.20.03 . 26 . 06 . 5 . 2 . 2 . 11 . 02 ,Belanja Makanan Dan Minuman Rapat ,2000000.00,belanja makan minum rapat
,,,"100 OK x 20.000,00 = 2.000.000,00"

1.20 . 1.20.03 . 26 . 06 . 5 . 2 . 2 . 11 . 05 ,Belanja Makanan dan Minuman Pelaksanaan Kegiatan ,9000000.00,belanja makan minum pelaksana kegiatan
,,,"360 ok x 25.000,00 = 9.000.000,00"
1.20 . 1.20.03 . 26 . 06 . 5 . 2 . 2 . 15 ,Belanja Perjalanan Dinas ,9450000.00
1.20 . 1.20.03 . 26 . 06 . 5 . 2 . 2 . 15 . 01 ,Belanja Perjalanan Dinas Dalam Daerah ,3700000.00,belanja perjalanan dinas dalam daerah
,,,golongan IV
,,,"20 org/hr x 70.000,00 = 1.400.000,00"
,,,Go III
,,,"30 org/hr x 60.000,00 = 1.800.000,00"
,,,Gol II
,,,"10 org/hr x 50.000,00 = 500.000,00"
1.20 . 1.20.03 . 26 . 06 . 5 . 2 . 2 . 15 . 02 ,Belanja Perjalanan Dinas Luar Daerah ,5750000.00,belanja perjalanan dinas lura daerah
,,,Gol IV
,,,"2 org/hr x 1.245.000,00 = 2.490.000,00"
,,,gol III
,,,"2 org/hr x 1.070.000,00 = 2.140.000,00"
,,,transpot gol Iv
,,,"1 pp x 560.000,00 = 560.000,00"
,,,transpot gol III
,,,"1 PP x 560.000,00 = 560.000,00"
1.20 . 1.20.03 . 26 . 06 . 5 . 2 . 2 . 35 ,"Jasa Narasumber, Tenaga Ahli, Yuri, Entry Data, Petugas Fogging dan Petugas Lapangan",16200000.00
1.20 . 1.20.03 . 26 . 06 . 5 . 2 . 2 . 35 . 01 ,Jasa Nara Sumber/Moderator/Tenaga Ahli ,7200000.00,Honorarium Narasumber dan Moderator
,,,Hohorariu Narasumber
,,,"16 Ok x 400.000,00 = 6.400.000,00"
,,,Honorarium Moderator
,,,"4 Ok x 200.000,00 = 800.000,00"
1.20 . 1.20.03 . 26 . 06 . 5 . 2 . 2 . 35 . 05 ,Jasa Peserta Seminar/Simposium /Workshop/Sosialisasi ,9000000.00,Honor harian peserta konsultasi publik
,,,"300 Ok x 30.000,00 = 9.000.000,00"
1.20 . 1.20.03 . 26 . 07 ,Koordinasi pemberian bantuan hukum ,86284000.00,Sumber Dana : 
,,,Lokasi Kegiatan : Kecamatan Bantul
,,,"Keluaran :  Terlaksananya emberian bantuan hukum, pembinaan PTUN, perjanjian, RANHAM, TUN"
,,,"Target:  8 5 penanganan perkara, 1 kali sosialisasi perjanjian, 1 kali pembinaan PTUN dan 1 kali RANHAM"
1.20 . 1.20.03 . 26 . 07 . 5 . 2 . 1 ,Belanja Pegawai ,17205000.00
1.20 . 1.20.03 . 26 . 07 . 5 . 2 . 1 . 01 ,Honorarium PNS ,17205000.00
1.20 . 1.20.03 . 26 . 07 . 5 . 2 . 1 . 01 . 01 ,Honorarium Panitia Pelaksana Kegiatan ,17205000.00,honorarium panitia peaksana kegiatan
,,,Sekretaris
,,,"3 OA x 125.000,00 = 375.000,00"
,,,Anggota Gol III
,,,"15 OA x 100.000,00 = 1.500.000,00"
,,,Anggota Gol II
,,,"3 OA x 80.000,00 = 240.000,00"
,,,pengumpul data
,,,"36 ob x 110.000,00 = 3.960.000,00"
,,,pembantu pengumpul data
,,,"12 ob x 80.000,00 = 960.000,00"
,,,honor panitia kegiatan ketua
,,,"3 OA x 150.000,00 = 450.000,00"
,,,honorarium tim sekretariat ketua/koordinator
,,,"12 ob x 170.000,00 = 2.040.000,00"
,,,sekretaris
,,,"12 ob x 160.000,00 = 1.920.000,00"
,,,anggota
,,,"48 ob x 120.000,00 = 5.760.000,00"
1.20 . 1.20.03 . 26 . 07 . 5 . 2 . 2 ,Belanja Barang dan Jasa ,69079000.00
1.20 . 1.20.03 . 26 . 07 . 5 . 2 . 2 . 01 ,Belanja Bahan Pakai Habis ,2756000.00
1.20 . 1.20.03 . 26 . 07 . 5 . 2 . 2 . 01 . 01 ,Belanja Alat Tulis Kantor ,2756000.00,"Belanja ATK (kertas, tinta, map, spidol, pensil, ballpoint, dll)"
,,,"Belanja ATK (kertas, tinta, map, spidol, pensil, ballpoint dll)"
,,,"1 Ls x 2.756.000,00 = 2.756.000,00"
1.20 . 1.20.03 . 26 . 07 . 5 . 2 . 2 . 03 ,Belanja Jasa Kantor ,3000000.00
1.20 . 1.20.03 . 26 . 07 . 5 . 2 . 2 . 03 . 21 ,Belanja Perkara ,3000000.00,Belanja Perkara
,,,"1 Ls x 3.000.000,00 = 3.000.000,00"
1.20 . 1.20.03 . 26 . 07 . 5 . 2 . 2 . 06 ,Belanja Cetak dan Penggandaan ,3300000.00
1.20 . 1.20.03 . 26 . 07 . 5 . 2 . 2 . 06 . 01 ,Belanja Cetak ,1000000.00,Belanja Cetak
,,,"200 eks x 5.000,00 = 1.000.000,00"
1.20 . 1.20.03 . 26 . 07 . 5 . 2 . 2 . 06 . 02 ,Belanja Penggandaan ,2300000.00,Belanja penggandaan
,,,"18,400 lembar x 125,00 = 2.300.000,00"
1.20 . 1.20.03 . 26 . 07 . 5 . 2 . 2 . 11 ,Belanja Makanan dan  Minuman ,9125000.00
1.20 . 1.20.03 . 26 . 07 . 5 . 2 . 2 . 11 . 02 ,Belanja Makanan Dan Minuman Rapat ,1625000.00,Belanja makan dan minum rapat
,,,Belanja snack dan minum rapat
,,,"50 ok x 8.500,00 = 425.000,00"
,,,"60 ok x 20.000,00 = 1.200.000,00"
1.20 . 1.20.03 . 26 . 07 . 5 . 2 . 2 . 11 . 05 ,Belanja Makanan dan Minuman Pelaksanaan Kegiatan ,7500000.00,Belanja makan dan minum pelaksanaan kegiatan
,,,"300 ok x 25.000,00 = 7.500.000,00"
1.20 . 1.20.03 . 26 . 07 . 5 . 2 . 2 . 15 ,Belanja Perjalanan Dinas ,13298000.00
1.20 . 1.20.03 . 26 . 07 . 5 . 2 . 2 . 15 . 01 ,Belanja Perjalanan Dinas Dalam Daerah ,2150000.00,Belanja perjalanan dinas dalam daerah
,,,Gol III
,,,"30 op x 60.000,00 = 1.800.000,00"
,,,Gol II
,,,"7 op x 50.000,00 = 350.000,00"
1.20 . 1.20.03 . 26 . 07 . 5 . 2 . 2 . 15 . 02 ,Belanja Perjalanan Dinas Luar Daerah ,11148000.00,Belanja perjalanan dinas luar daerah
,,,Gol III
,,,"6 op x 1.550.000,00 = 9.300.000,00"
,,,Tranport Gol III
,,,"3 pp x 616.000,00 = 1.848.000,00"
1.20 . 1.20.03 . 26 . 07 . 5 . 2 . 2 . 35 ,"Jasa Narasumber, Tenaga Ahli, Yuri, Entry Data, Petugas Fogging dan Petugas Lapangan",37600000.00
1.20 . 1.20.03 . 26 . 07 . 5 . 2 . 2 . 35 . 01 ,Jasa Nara Sumber/Moderator/Tenaga Ahli ,20650000.00,Honorarium Narasumber dan moderator/tenaga 
,,,ahli/instruktur
,,,Narasumber Pembinaan PTUN
,,,"3 OA x 400.000,00 = 1.200.000,00"
,,,Narasumber Perjanjian
,,,"3 OA x 400.000,00 = 1.200.000,00"
,,,Narasumber Ranham
,,,"2 OA x 1.000.000,00 = 2.000.000,00"
,,,"Honorarium Moderator PTUN, perjanjian"
,,,"2 OA x 250.000,00 = 500.000,00"
,,,Moderator Ran Ham
,,,"1 OA x 750.000,00 = 750.000,00"
,,,honorarium Tim kuasa (pengacara)
,,,"20 Ob/perkara x 750.000,00 = 15.000.000,00"
1.20 . 1.20.03 . 26 . 07 . 5 . 2 . 2 . 35 . 05 ,Jasa Peserta Seminar/Simposium /Workshop/Sosialisasi ,16950000.00,Honoraraium kuasa hukum non PNS
,,,Honor kuasa hukum non PNS
,,,"4 ok x 2.500.000,00 = 10.000.000,00"
,,,Honorarium Peserta Workshop
,,,Honor peserta workshop
,,,"200 ok x 25.000,00 = 5.000.000,00"
,,,Honor saksi sidang perkara
,,,"3 ok x 150.000,00 = 450.000,00"
,,,Honor saksi ahli
,,,"2 ok x 750.000,00 = 1.500.000,00"
1.20 . 1.20.03 . 26 . 08 ,Pemberdayaan kesadaran hukum ,35000000.00,Sumber Dana : 
,,,Lokasi Kegiatan : Kecamatan Bantul
,,,Keluaran :  Terlaksananya pemberdayaan kadarkum
,,,Target:  1 kelompok
1.20 . 1.20.03 . 26 . 08 . 5 . 2 . 1 ,Belanja Pegawai ,1300000.00
1.20 . 1.20.03 . 26 . 08 . 5 . 2 . 1 . 01 ,Honorarium PNS ,1300000.00
1.20 . 1.20.03 . 26 . 08 . 5 . 2 . 1 . 01 . 01 ,Honorarium Panitia Pelaksana Kegiatan ,1300000.00,honor panitia pelaksana kegiatan
,,,pembina
,,,"1 ok x 200.000,00 = 200.000,00"
,,,pengarah
,,,"1 ok x 180.000,00 = 180.000,00"
,,,ketua
,,,"1 ok x 170.000,00 = 170.000,00"
,,,sekretaris
,,,"1 ok x 150.000,00 = 150.000,00"
,,,anggota
,,,"6 ok x 100.000,00 = 600.000,00"
1.20 . 1.20.03 . 26 . 08 . 5 . 2 . 2 ,Belanja Barang dan Jasa ,33700000.00
1.20 . 1.20.03 . 26 . 08 . 5 . 2 . 2 . 01 ,Belanja Bahan Pakai Habis ,2000000.00
1.20 . 1.20.03 . 26 . 08 . 5 . 2 . 2 . 01 . 01 ,Belanja Alat Tulis Kantor ,2000000.00,"belanja atk (kertas, tinta, map, ballpoint, pensil, blocknote dll)"
,,,"belanja atk (kertas, tinta, blocknote, pensil, ballpoint, spidol dll)"
,,,"1 ls x 2.000.000,00 = 2.000.000,00"
1.20 . 1.20.03 . 26 . 08 . 5 . 2 . 2 . 02 ,Belanja Bahan/Material ,1500000.00
1.20 . 1.20.03 . 26 . 08 . 5 . 2 . 2 . 02 . 07 ,Belanja Cindera Mata ,1500000.00,belanja cenderamata
,,,"1 ls x 1.500.000,00 = 1.500.000,00"
1.20 . 1.20.03 . 26 . 08 . 5 . 2 . 2 . 06 ,Belanja Cetak dan Penggandaan ,1763000.00
1.20 . 1.20.03 . 26 . 08 . 5 . 2 . 2 . 06 . 02 ,Belanja Penggandaan ,1763000.00,belanja penggandaan
,,,"14,104 lembar x 125,00 = 1.763.000,00"
1.20 . 1.20.03 . 26 . 08 . 5 . 2 . 2 . 11 ,Belanja Makanan dan  Minuman ,9005000.00
1.20 . 1.20.03 . 26 . 08 . 5 . 2 . 2 . 11 . 02 ,Belanja Makanan Dan Minuman Rapat ,255000.00,belanja makan minum rapat
,,,belanja snack rapat
,,,"30 ok x 8.500,00 = 255.000,00"
1.20 . 1.20.03 . 26 . 08 . 5 . 2 . 2 . 11 . 05 ,Belanja Makanan dan Minuman Pelaksanaan Kegiatan ,8750000.00,belanja makan minum pelakssna kegiatan
,,,belanja makan minu pelaksanaan kegiatan
,,,"350 ok x 25.000,00 = 8.750.000,00"
1.20 . 1.20.03 . 26 . 08 . 5 . 2 . 2 . 15 ,Belanja Perjalanan Dinas ,8182000.00
1.20 . 1.20.03 . 26 . 08 . 5 . 2 . 2 . 15 . 01 ,Belanja Perjalanan Dinas Dalam Daerah ,750000.00,belanja perjalanan dinas dalam daerah
,,,Gol III
,,,"10 org/hr x 60.000,00 = 600.000,00"
,,,gol II
,,,"3 org/hr x 50.000,00 = 150.000,00"
1.20 . 1.20.03 . 26 . 08 . 5 . 2 . 2 . 15 . 02 ,Belanja Perjalanan Dinas Luar Daerah ,7432000.00,belanja perjalanan dinas luardaerah
,,,gol III
,,,"4 org/hr x 1.550.000,00 = 6.200.000,00"
,,,transpot gol III
,,,"2 pp x 616.000,00 = 1.232.000,00"
1.20 . 1.20.03 . 26 . 08 . 5 . 2 . 2 . 35 ,"Jasa Narasumber, Tenaga Ahli, Yuri, Entry Data, Petugas Fogging dan Petugas Lapangan",11250000.00
1.20 . 1.20.03 . 26 . 08 . 5 . 2 . 2 . 35 . 01 ,Jasa Nara Sumber/Moderator/Tenaga Ahli ,5000000.00,honorarium narasumber/moderator
,,,honor narasumber dan moderator
,,,"20 ok x 250.000,00 = 5.000.000,00"
1.20 . 1.20.03 . 26 . 08 . 5 . 2 . 2 . 35 . 05 ,Jasa Peserta Seminar/Simposium /Workshop/Sosialisasi ,6250000.00,Honorarium peserta harian
,,,honor harian
,,,"250 ok x 25.000,00 = 6.250.000,00"
1.20 . 1.20.03 . 26 . 15 ,Pengawasan produk hukum pemerintah desa ,56950000.00,Sumber Dana : 
,,,Lokasi Kegiatan : Kecamatan Bantul
,,,Keluaran :  Terlaksananya evaluasi rancangan Perdes
,,,Target:  150 buah
1.20 . 1.20.03 . 26 . 15 . 5 . 2 . 1 ,Belanja Pegawai ,30480000.00
1.20 . 1.20.03 . 26 . 15 . 5 . 2 . 1 . 01 ,Honorarium PNS ,30480000.00
1.20 . 1.20.03 . 26 . 15 . 5 . 2 . 1 . 01 . 01 ,Honorarium Panitia Pelaksana Kegiatan ,30480000.00,honor panitia pelaksana kegiatan
,,,sekretaris
,,,"12 ob x 170.000,00 = 2.040.000,00"
,,,anggota
,,,"96 ob x 150.000,00 = 14.400.000,00"
,,,staf sekretariat
,,,"72 ob x 100.000,00 = 7.200.000,00"
,,,pembina
,,,"12 ob x 200.000,00 = 2.400.000,00"
,,,pengarah
,,,"12 ob x 190.000,00 = 2.280.000,00"
,,,ketua
,,,"12 0b x 180.000,00 = 2.160.000,00"
1.20 . 1.20.03 . 26 . 15 . 5 . 2 . 2 ,Belanja Barang dan Jasa ,26470000.00
1.20 . 1.20.03 . 26 . 15 . 5 . 2 . 2 . 01 ,Belanja Bahan Pakai Habis ,2500000.00
1.20 . 1.20.03 . 26 . 15 . 5 . 2 . 2 . 01 . 01 ,Belanja Alat Tulis Kantor ,2500000.00,"belanja Alat tulis kantor (kertas, flasdisk, tinta, spidol, ballpoint, pensil, dll)"
,,,"belanja alat tulis kantor (kertas, tinta, flasdisk, map, pensil, ballpoint dll)"
,,,"1 ls x 2.500.000,00 = 2.500.000,00"
1.20 . 1.20.03 . 26 . 15 . 5 . 2 . 2 . 06 ,Belanja Cetak dan Penggandaan ,3155000.00
1.20 . 1.20.03 . 26 . 15 . 5 . 2 . 2 . 06 . 02 ,Belanja Penggandaan ,3155000.00,belanja penggandaan
,,,"25,240 lembar x 125,00 = 3.155.000,00"
1.20 . 1.20.03 . 26 . 15 . 5 . 2 . 2 . 11 ,Belanja Makanan dan  Minuman ,11225000.00
1.20 . 1.20.03 . 26 . 15 . 5 . 2 . 2 . 11 . 02 ,Belanja Makanan Dan Minuman Rapat ,11225000.00,belanja makan minum rapaat
,,,belanakan makan minum snack
,,,"450 ok x 8.500,00 = 3.825.000,00"
,,,belanja makan minum makan
,,,"370 ok x 20.000,00 = 7.400.000,00"
1.20 . 1.20.03 . 26 . 15 . 5 . 2 . 2 . 15 ,Belanja Perjalanan Dinas ,9590000.00
1.20 . 1.20.03 . 26 . 15 . 5 . 2 . 2 . 15 . 01 ,Belanja Perjalanan Dinas Dalam Daerah ,2260000.00,belanja erjalan dinas dalam daerah
,,,gol IV
,,,"8 org/hr x 70.000,00 = 560.000,00"
,,,gol III
,,,"20 org/hr x 60.000,00 = 1.200.000,00"
,,,gol II
,,,"10 org/hr x 50.000,00 = 500.000,00"
1.20 . 1.20.03 . 26 . 15 . 5 . 2 . 2 . 15 . 02 ,Belanja Perjalanan Dinas Luar Daerah ,7330000.00,belanja perjalanan dinas luar daerah
,,,Gol IV
,,,"2 org/hr x 1.245.000,00 = 2.490.000,00"
,,,gol III
,,,"2 org/hr x 1.070.000,00 = 2.140.000,00"
,,,transpot gol IV
,,,"1 pp x 1.350.000,00 = 1.350.000,00"
,,,transpot  gol III
,,,"1 pp x 1.350.000,00 = 1.350.000,00"
1.20 . 1.20.03 . 26 . 19 ,Koordinasi Penyusunan Peraturan Bupati ,50000000.00,Sumber Dana : 
,,,Lokasi Kegiatan : Kecamatan Bantul
,,,Keluaran :  Terlaksananya penyusunan Peraturan Bupati
,,,Target:  50 Peraturan Bupati
1.20 . 1.20.03 . 26 . 19 . 5 . 2 . 1 ,Belanja Pegawai ,22800000.00
1.20 . 1.20.03 . 26 . 19 . 5 . 2 . 1 . 01 ,Honorarium PNS ,22800000.00
1.20 . 1.20.03 . 26 . 19 . 5 . 2 . 1 . 01 . 01 ,Honorarium Panitia Pelaksana Kegiatan ,22800000.00,Honor panitia pelalsana kegiatan
,,,tim teknis penyusun perbub pembina
,,,"12 ob x 190.000,00 = 2.280.000,00"
,,,pengarah
,,,"12 ob x 180.000,00 = 2.160.000,00"
,,,ketua
,,,"12 ob x 170.000,00 = 2.040.000,00"
,,,sekretaris
,,,"12 ob x 160.000,00 = 1.920.000,00"
,,,Anggota
,,,"96 ob x 150.000,00 = 14.400.000,00"
1.20 . 1.20.03 . 26 . 19 . 5 . 2 . 2 ,Belanja Barang dan Jasa ,27200000.00
1.20 . 1.20.03 . 26 . 19 . 5 . 2 . 2 . 01 ,Belanja Bahan Pakai Habis ,4000000.00
1.20 . 1.20.03 . 26 . 19 . 5 . 2 . 2 . 01 . 01 ,Belanja Alat Tulis Kantor ,4000000.00,"belanja alat tulis kantor (Kertas, tinta, map, spidol, pensil, ballpoint, flasdisk dll)"
,,,"belanja atk (kertas, pensil,bolpoint, flaskdisk dll)"
,,,"1 ls x 4.000.000,00 = 4.000.000,00"
1.20 . 1.20.03 . 26 . 19 . 5 . 2 . 2 . 06 ,Belanja Cetak dan Penggandaan ,4725000.00
1.20 . 1.20.03 . 26 . 19 . 5 . 2 . 2 . 06 . 02 ,Belanja Penggandaan ,4725000.00,belanja penggandaan
,,,"37,800 lembar x 125,00 = 4.725.000,00"
1.20 . 1.20.03 . 26 . 19 . 5 . 2 . 2 . 11 ,Belanja Makanan dan  Minuman ,5275000.00
1.20 . 1.20.03 . 26 . 19 . 5 . 2 . 2 . 11 . 02 ,Belanja Makanan Dan Minuman Rapat ,5275000.00,belanja makan minum rapat
,,,belanja snck makan minum
,,,"270 ok x 8.500,00 = 2.295.000,00"
,,,"149 ok x 20.000,00 = 2.980.000,00"
1.20 . 1.20.03 . 26 . 19 . 5 . 2 . 2 . 15 ,Belanja Perjalanan Dinas ,13200000.00
1.20 . 1.20.03 . 26 . 19 . 5 . 2 . 2 . 15 . 01 ,Belanja Perjalanan Dinas Dalam Daerah ,7450000.00,belanja perjalanan dinas dalam daerah
,,,Gol IV
,,,"20 org/hr x 70.000,00 = 1.400.000,00"
,,,gol III
,,,"80 org/hr x 60.000,00 = 4.800.000,00"
,,,gol II
,,,"25 0rg/hr x 50.000,00 = 1.250.000,00"
1.20 . 1.20.03 . 26 . 19 . 5 . 2 . 2 . 15 . 02 ,Belanja Perjalanan Dinas Luar Daerah ,5750000.00,belanja perjalanan dinas luar daerah
,,,transpot Gol III
,,,"1 pp x 560.000,00 = 560.000,00"
,,,Go IV
,,,"2 org/hr x 1.245.000,00 = 2.490.000,00"
,,,gol III
,,,"2 org/hr x 1.070.000,00 = 2.140.000,00"
,,,transpot Gol IV
,,,"1 pp x 560.000,00 = 560.000,00"
1.20 . 1.20.03 . 26 . 20 ,Koordinasi Penyusunan Keputusan Bupati ,47860000.00,Sumber Dana : 
,,,Lokasi Kegiatan : Kecamatan Bantul
,,,Keluaran :  Terlaksananya Penyusunan Keputusan Bupati
,,,Target:  300 SK Bupati
1.20 . 1.20.03 . 26 . 20 . 5 . 2 . 1 ,Belanja Pegawai ,22800000.00
1.20 . 1.20.03 . 26 . 20 . 5 . 2 . 1 . 01 ,Honorarium PNS ,22800000.00
1.20 . 1.20.03 . 26 . 20 . 5 . 2 . 1 . 01 . 01 ,Honorarium Panitia Pelaksana Kegiatan ,22800000.00,honor panitia pelaksana kegiatan
,,,sekretaris
,,,"12 ob x 160.000,00 = 1.920.000,00"
,,,anggota
,,,"96 ob x 150.000,00 = 14.400.000,00"
,,,"tim penyusunan SK, Instruksi Bupati pembina"
,,,"12 ob x 190.000,00 = 2.280.000,00"
,,,pengarah
,,,"12 ob x 180.000,00 = 2.160.000,00"
,,,ketua
,,,"12 ob x 170.000,00 = 2.040.000,00"
1.20 . 1.20.03 . 26 . 20 . 5 . 2 . 2 ,Belanja Barang dan Jasa ,25060000.00
1.20 . 1.20.03 . 26 . 20 . 5 . 2 . 2 . 01 ,Belanja Bahan Pakai Habis ,4000000.00
1.20 . 1.20.03 . 26 . 20 . 5 . 2 . 2 . 01 . 01 ,Belanja Alat Tulis Kantor ,4000000.00,"belanja ATK (kertas, bolpoint, flaskdisk, pensil dll )"
,,,"belanja ATK (kertas, map, flasdisk, dll)"
,,,"1 LS x 4.000.000,00 = 4.000.000,00"
1.20 . 1.20.03 . 26 . 20 . 5 . 2 . 2 . 06 ,Belanja Cetak dan Penggandaan ,4725000.00
1.20 . 1.20.03 . 26 . 20 . 5 . 2 . 2 . 06 . 02 ,Belanja Penggandaan ,4725000.00,belanja penggandaan
,,,"37,800 lembar x 125,00 = 4.725.000,00"
1.20 . 1.20.03 . 26 . 20 . 5 . 2 . 2 . 11 ,Belanja Makanan dan  Minuman ,5450000.00
1.20 . 1.20.03 . 26 . 20 . 5 . 2 . 2 . 11 . 02 ,Belanja Makanan Dan Minuman Rapat ,5450000.00,belanja makan minu rapat
,,,belanja snack makan minum
,,,"300 ok x 8.500,00 = 2.550.000,00"
,,,belanja makan minum rapat
,,,"145 ok x 20.000,00 = 2.900.000,00"
1.20 . 1.20.03 . 26 . 20 . 5 . 2 . 2 . 15 ,Belanja Perjalanan Dinas ,10885000.00
1.20 . 1.20.03 . 26 . 20 . 5 . 2 . 2 . 15 . 01 ,Belanja Perjalanan Dinas Dalam Daerah ,7450000.00,belanja perjalanan dinas dalam daerah
,,,gol IV
,,,"20 org/hr x 70.000,00 = 1.400.000,00"
,,,gol III
,,,"80 ok x 60.000,00 = 4.800.000,00"
,,,gol II
,,,"25 ok x 50.000,00 = 1.250.000,00"
1.20 . 1.20.03 . 26 . 20 . 5 . 2 . 2 . 15 . 02 ,Belanja Perjalanan Dinas Luar Daerah ,3435000.00,belanja perjalanan dinas luar daerah
,,,transpot gol III
,,,"1 PP x 560.000,00 = 560.000,00"
,,,gol IV
,,,"1 org/hr x 1.245.000,00 = 1.245.000,00"
,,,gol III
,,,"1 org/hr x 1.070.000,00 = 1.070.000,00"
,,,transpot Gol IV
,,,"1 pp x 560.000,00 = 560.000,00"

,,SURPLUS / (DEFISIT) ,"(905.088.625,00)"
