Judul,PENJABARAN APBD
Daerah,Kabupaten Bantul
Tahun,2015
Kode Organisasi,1.2
Kolom,4




No. Rekening,Uraian,Jumlah,Keterangan
1.20 . 1.20.03 . 01 . 01 . 5 ,BELANJA ,672838275.00
1.20 . 1.20.03 . 01 . 01 . 5 . 2 ,BELANJA LANGSUNG ,672838275.00
1.20 . 1.20.03 . 01 ,Program Pelayanan Administrasi Perkantoran ,92529750.00
1.20 . 1.20.03 . 01 . 01 ,Penyediaan jasa surat menyurat ,3000000.00,Sumber Dana : 
,,,Lokasi Kegiatan : Kec. Bantul
,,,Keluaran :  Tersedianya materai dan benda pos lainnya
,,,Target:  675 lbr
1.20 . 1.20.03 . 01 . 01 . 5 . 2 . 2 ,Belanja Barang dan Jasa ,3000000.00
1.20 . 1.20.03 . 01 . 01 . 5 . 2 . 2 . 01 ,Belanja Bahan Pakai Habis ,3000000.00
1.20 . 1.20.03 . 01 . 01 . 5 . 2 . 2 . 01 . 04 ,"Belanja Perangko, Materai Dan Benda Pos ",3000000.00,Belanja materai
,,,Materai @  Rp. 3.000
,,,"350 lbr x 3.000,00 = 1.050.000,00"
,,,Materai @ Rp. 6.000
,,,"325 lbr x 6.000,00 = 1.950.000,00"
1.20 . 1.20.03 . 01 . 06 ,Penyediaan jasa pemeliharaan dan perizinan kendaraan dinas/operasional,1500000.00,Sumber Dana : 
,,,Lokasi Kegiatan : Kec. Bantul
,,,Keluaran :  Tercapainya tertib administrasi
,,,Target:  5 STNK
1.20 . 1.20.03 . 01 . 06 . 5 . 2 . 2 ,Belanja Barang dan Jasa ,1500000.00
1.20 . 1.20.03 . 01 . 06 . 5 . 2 . 2 . 05 ,Belanja Perawatan Kendaraan Bermotor ,1500000.00
1.20 . 1.20.03 . 01 . 06 . 5 . 2 . 2 . 05 . 07 ,Belanja Surat Tanda Nomor Kendaraan ,1500000.00,Belanja Surat Tanda Nomor Kendaraan
,,,Surat Tanda Nomor Kendaraan Bermotor
,,,"1 ls x 1.500.000,00 = 1.500.000,00"
1.20 . 1.20.03 . 01 . 07 ,Penyediaan jasa administrasi keuangan ,10340000.00,Sumber Dana : 
,,,Lokasi Kegiatan : Kec. Bantul
,,,Keluaran :  Tersediannya honor administrasi pengelola keuangan
,,,Target:  7 orang
1.20 . 1.20.03 . 01 . 07 . 5 . 2 . 1 ,Belanja Pegawai ,9000000.00
1.20 . 1.20.03 . 01 . 07 . 5 . 2 . 1 . 01 ,Honorarium PNS ,9000000.00
1.20 . 1.20.03 . 01 . 07 . 5 . 2 . 1 . 01 . 06 ,Honor Pengelola Keuangan dan Barang ,9000000.00,Honor Pengelola Keuangan dan Barang
,,,Honor Personalia Administrasi Kepegawaian
,,,"12 ob x 75.000,00 = 900.000,00"
,,,Honor Pembantu Bendahara Pengurus Gaji
,,,"12 ob x 75.000,00 = 900.000,00"
,,,Honor Pengurus Barang
,,,"12 ob x 150.000,00 = 1.800.000,00"
,,,Honor Penyimpan Barang
,,,"12 ob x 100.000,00 = 1.200.000,00"
,,,Honor Bendahara Pengeluaran Pembantu
,,,"12 ob x 150.000,00 = 1.800.000,00"
,,,Honor Pembantu Bendahara (Pembuat dokumen/Neraca)
,,,"12 ob x 100.000,00 = 1.200.000,00"
,,,Honor Pembantu Bendahara (Pembuat dokumen)
,,,"12 ob x 100.000,00 = 1.200.000,00"
1.20 . 1.20.03 . 01 . 07 . 5 . 2 . 2 ,Belanja Barang dan Jasa ,1340000.00
1.20 . 1.20.03 . 01 . 07 . 5 . 2 . 2 . 01 ,Belanja Bahan Pakai Habis ,500000.00
1.20 . 1.20.03 . 01 . 07 . 5 . 2 . 2 . 01 . 01 ,Belanja Alat Tulis Kantor ,500000.00,Belanja ATK kegiatan Pengelolaan Keuangan
,,,"ATK 1 ls x 500.000,00 = 500.000,00"
1.20 . 1.20.03 . 01 . 07 . 5 . 2 . 2 . 06 ,Belanja Cetak dan Penggandaan ,500000.00
1.20 . 1.20.03 . 01 . 07 . 5 . 2 . 2 . 06 . 02 ,Belanja Penggandaan ,500000.00,Belanja penggandaan laporan keuangan
,,,"Belanja penggandan 4,000 lbr x 125,00 = 500.000,00"
1.20 . 1.20.03 . 01 . 07 . 5 . 2 . 2 . 11 ,Belanja Makanan dan  Minuman ,340000.00
1.20 . 1.20.03 . 01 . 07 . 5 . 2 . 2 . 11 . 02 ,Belanja Makanan Dan Minuman Rapat ,340000.00,Belanja makan dan minum rapat pengelolaan keuangan
,,,"Makan dan minum rapat 40 or x 8.500,00 = 340.000,00"
1.20 . 1.20.03 . 01 . 08 ,Penyediaan jasa kebersihan kantor ,500000.00,Sumber Dana : 
,,,Lokasi Kegiatan : Kec. Bantul
,,,Keluaran :  Tersediannya alat dan  bahan pembersih
,,,Target:  1 Tahun
1.20 . 1.20.03 . 01 . 08 . 5 . 2 . 2 ,Belanja Barang dan Jasa ,500000.00
1.20 . 1.20.03 . 01 . 08 . 5 . 2 . 2 . 01 ,Belanja Bahan Pakai Habis ,500000.00
1.20 . 1.20.03 . 01 . 08 . 5 . 2 . 2 . 01 . 05 ,Belanja Peralatan Kebersihan Dan Bahan Pembersih ,500000.00,Belanja peralatan kebersihan dan bahan pembersih kantor
,,,"1 ls x 500.000,00 = 500.000,00"
1.20 . 1.20.03 . 01 . 10 ,Penyediaan alat tulis kantor ,5000000.00,Sumber Dana : 
,,,Lokasi Kegiatan : Kec. Bantul
,,,Keluaran :  Tersediannya Alat Tulis Kantor
,,,Target:  1 Tahun
1.20 . 1.20.03 . 01 . 10 . 5 . 2 . 2 ,Belanja Barang dan Jasa ,5000000.00
1.20 . 1.20.03 . 01 . 10 . 5 . 2 . 2 . 01 ,Belanja Bahan Pakai Habis ,5000000.00
1.20 . 1.20.03 . 01 . 10 . 5 . 2 . 2 . 01 . 01 ,Belanja Alat Tulis Kantor ,5000000.00,Belanja Alat tulis Kantor
,,,Belanja Alat Tulis Kantor untuk operasional kantor
,,,"1 ls x 5.000.000,00 = 5.000.000,00"
1.20 . 1.20.03 . 01 . 11 ,Penyediaan barang cetakan dan penggandaan ,14726750.00,Sumber Dana : 
,,,Lokasi Kegiatan : Kkec. Bantul
,,,Keluaran :  Tersediannya barang cetakan dan penggandaan
,,,Target:  1 Tahun
1.20 . 1.20.03 . 01 . 11 . 5 . 2 . 2 ,Belanja Barang dan Jasa ,14726750.00
1.20 . 1.20.03 . 01 . 11 . 5 . 2 . 2 . 06 ,Belanja Cetak dan Penggandaan ,14726750.00
1.20 . 1.20.03 . 01 . 11 . 5 . 2 . 2 . 06 . 01 ,Belanja Cetak ,8000000.00,Belanja cetak untuk operasional kantor
,,,"Belanja cetak 1 ls x 8.000.000,00 = 8.000.000,00"
1.20 . 1.20.03 . 01 . 11 . 5 . 2 . 2 . 06 . 02 ,Belanja Penggandaan ,6726750.00,Belanja penggandaan/fotocopy
,,,Belanja penggandaan fotocopy operasional kantor
,,,"53,814 lb x 125,00 = 6.726.750,00"
1.20 . 1.20.03 . 01 . 15 ,Penyediaan bahan bacaan dan peraturan perundang-undangan ,2448000.00,Sumber Dana : 
,,,Lokasi Kegiatan : Kec. Bantul
,,,Keluaran :  Langganan surat kabar dan majalah
,,,Target:  1 Tahun
1.20 . 1.20.03 . 01 . 15 . 5 . 2 . 2 ,Belanja Barang dan Jasa ,2448000.00
1.20 . 1.20.03 . 01 . 15 . 5 . 2 . 2 . 03 ,Belanja Jasa Kantor ,2448000.00
1.20 . 1.20.03 . 01 . 15 . 5 . 2 . 2 . 03 . 05 ,Belanja Surat Kabar/Majalah ,2448000.00,Belanja surat kabar/majalah
,,,Belanja  surat kabar
,,,"12 bl x 126.000,00 = 1.512.000,00"
,,,Belanja Majalah/Tabloid
,,,"12 bl x 78.000,00 = 936.000,00"
1.20 . 1.20.03 . 01 . 16 ,Penyediaan bahan logistik kantor ,9000000.00,Sumber Dana : 
,,,Lokasi Kegiatan : Kec. Bantul
,,,"Keluaran :  Dukungan dana, SDM dan waktu"
,,,Target:  100 %
1.20 . 1.20.03 . 01 . 16 . 5 . 2 . 2 ,Belanja Barang dan Jasa ,9000000.00
1.20 . 1.20.03 . 01 . 16 . 5 . 2 . 2 . 02 ,Belanja Bahan/Material ,9000000.00
1.20 . 1.20.03 . 01 . 16 . 5 . 2 . 2 . 02 . 07 ,Belanja Cindera Mata ,9000000.00,Belanja cenderamata/piala
,,,Belanja piala
,,,"15 set x 600.000,00 = 9.000.000,00"
1.20 . 1.20.03 . 01 . 17 ,Penyediaan makanan dan minuman ,3400000.00,Sumber Dana : 
,,,Lokasi Kegiatan : Kec. Bantul
,,,Keluaran :  Tersedianya jamuan rapat
,,,Target:  1 Tahun
1.20 . 1.20.03 . 01 . 17 . 5 . 2 . 2 ,Belanja Barang dan Jasa ,3400000.00
1.20 . 1.20.03 . 01 . 17 . 5 . 2 . 2 . 11 ,Belanja Makanan dan  Minuman ,3400000.00
1.20 . 1.20.03 . 01 . 17 . 5 . 2 . 2 . 11 . 02 ,Belanja Makanan Dan Minuman Rapat ,3400000.00,Belanja makan minum rapat
,,,Belanja  minum dan snack
,,,ket: 100 orang x4x 8500
,,,"400 or x 8.500,00 = 3.400.000,00"
1.20 . 1.20.03 . 01 . 18 ,Rapat-rapat koordinasi dan konsultasi ke luar daerah ,37165000.00,Sumber Dana : 
,,,Lokasi Kegiatan : Kec. Bantul
,,,Keluaran :  Terlaksannya perjalanan dinas ke luar daerah 
,,,Target:  2 kali
1.20 . 1.20.03 . 01 . 18 . 5 . 2 . 2 ,Belanja Barang dan Jasa ,37165000.00
1.20 . 1.20.03 . 01 . 18 . 5 . 2 . 2 . 15 ,Belanja Perjalanan Dinas ,37165000.00
1.20 . 1.20.03 . 01 . 18 . 5 . 2 . 2 . 15 . 02 ,Belanja Perjalanan Dinas Luar Daerah ,37165000.00,Belanja Perjalanan Dinas Ke luar Daerah
,,,Tiket Kereta Api  PP ke luar daerah
,,,"14 pp x 550.000,00 = 7.700.000,00"
,,,Biaya angkutan lokal
,,,Golongan IV : 1 x 2 x 250000
,,,"2 oh x 250.000,00 = 500.000,00"
,,,Biaya angkutan lokal
,,,golongan III : 9 x 2 x 200000
,,,"18 OH x 200.000,00 = 3.600.000,00"
,,,Biaya angkutan lokal
,,,Golongan II : 4 x 2 x 200000
,,,"8 oh x 200.000,00 = 1.600.000,00"
,,,Uang Makan & Uang Saku
,,,Golongan IV : 1 x 3 x 495000
,,,"3 oh x 495.000,00 = 1.485.000,00"
,,,Uang makan dan uang saku
,,,Golongan III : 9 x 3 x 420000
,,,"27 oh x 420.000,00 = 11.340.000,00"
,,,Uang makan dan uang saku
,,,Golongan II : 4 x 3 x 370.000
,,,"12 oh x 370.000,00 = 4.440.000,00"
,,, Penginapan
,,,Golongan IV  : 1x 2 hari x 450.000
,,,"2 oh x 450.000,00 = 900.000,00"
,,,Penginpan 
,,,Golongan III  : 5 x 2 x 400.000
,,,"10 oh x 400.000,00 = 4.000.000,00"
,,,Penginapan 
,,,Golongan II: 2 x 2 x 400000
,,,"4 oh x 400.000,00 = 1.600.000,00"
1.20 . 1.20.03 . 01 . 19 ,Rapat-rapat koordinasi dan konsultasi dalam daerah ,5450000.00,Sumber Dana : 
,,,Lokasi Kegiatan : Kec. Bantul
,,,Keluaran :  Terlaksanannya koordinasi di dalam daerah
,,,Target:  31 kali
1.20 . 1.20.03 . 01 . 19 . 5 . 2 . 2 ,Belanja Barang dan Jasa ,5450000.00
1.20 . 1.20.03 . 01 . 19 . 5 . 2 . 2 . 15 ,Belanja Perjalanan Dinas ,5450000.00
1.20 . 1.20.03 . 01 . 19 . 5 . 2 . 2 . 15 . 01 ,Belanja Perjalanan Dinas Dalam Daerah ,5450000.00,Perjalanan dalam daerah Kabupaten Kota di Propinsi
,,,"Golongan III 30 op x 60.000,00 = 1.800.000,00"
,,,"Golongan II 15 op x 50.000,00 = 750.000,00"
,,,Perjalanan dalam daerah ke kecamatan 
,,,"Golongan II 30 op x 30.000,00 = 900.000,00"
,,,"Golongan III 50 op x 40.000,00 = 2.000.000,00"
1.20 . 1.20.03 . 02 ,Program Peningkatan Sarana dan Prasarana Aparatur ,51200000.00
1.20 . 1.20.03 . 02 . 24 ,Pemeliharaan rutin/berkala kendaraan dinas/operasional ,49000000.00,Sumber Dana : 
,,,Lokasi Kegiatan : Kec. Bantul
,,,"Keluaran :  Tersdiannya BBM, suku cadang, biaya service & rehab kendaraan"
,,,Target:  4 Unit
1.20 . 1.20.03 . 02 . 24 . 5 . 2 . 2 ,Belanja Barang dan Jasa ,49000000.00
1.20 . 1.20.03 . 02 . 24 . 5 . 2 . 2 . 05 ,Belanja Perawatan Kendaraan Bermotor ,49000000.00
1.20 . 1.20.03 . 02 . 24 . 5 . 2 . 2 . 05 . 01 ,Belanja Jasa Service ,4000000.00,Belanja jasa service dan rehab kendaraan dinas
,,,Belanja service  dan rehab kendaraan dinas roda 4 ( 2 unit) dan roda 2 ( 2 unit)
,,,"1 ls x 4.000.000,00 = 4.000.000,00"
1.20 . 1.20.03 . 02 . 24 . 5 . 2 . 2 . 05 . 02 ,Belanja Penggantian Suku Cadang ,8000000.00,"Belanja penggantian suku cadang ,onderdil, accu, dll"
,,,"Belanja penggantian suku cadang, onderdil, accu dll  kendaraan roda 4 ( 2 unit) dan roda 2 ( 2 unit) "
,,,"1 ls x 8.000.000,00 = 8.000.000,00"
1.20 . 1.20.03 . 02 . 24 . 5 . 2 . 2 . 05 . 03 ,Belanja Bahan Bakar Minyak/Gas Dan Pelumas ,37000000.00,Belanja BBM operasional kantor
,,,Belanja BBM operasional kantor untuk kendaraan roda 2 dan 4
,,,"1 ls x 37.000.000,00 = 37.000.000,00"
1.20 . 1.20.03 . 02 . 30 ,Pemeliharaan rutin/berkala peralatan dan perlengkapan kantor ,2200000.00,Sumber Dana : 
,,,Lokasi Kegiatan : Kec. Bantul
,,,Keluaran :  Pemeliharaan  komputer dan printer
,,,Target:  7 Unit
1.20 . 1.20.03 . 02 . 30 . 5 . 2 . 2 ,Belanja Barang dan Jasa ,2200000.00
1.20 . 1.20.03 . 02 . 30 . 5 . 2 . 2 . 20 ,Belanja Pemeliharaan ,2200000.00
1.20 . 1.20.03 . 02 . 30 . 5 . 2 . 2 . 20 . 04 ,Belanja Pemeliharan Peralatan dan Mesin ,2200000.00,Belanja pemeliharaan komputer dan printer
,,,"1 ls x 2.200.000,00 = 2.200.000,00"
1.20 . 1.20.03 . 03 ,Program peningkatan disiplin aparatur ,25200000.00
1.20 . 1.20.03 . 03 . 05 ,Pengadaan pakaian khusus hari-hari tertentu ,25200000.00,Sumber Dana : 
,,,Lokasi Kegiatan : Kec. Bantul
,,,Keluaran :  Tersediannya pakaian untuk hari-hari tertentu bagi anggota korsik
,,,Target:  40 stel
1.20 . 1.20.03 . 03 . 05 . 5 . 2 . 1 ,Belanja Pegawai ,700000.00
1.20 . 1.20.03 . 03 . 05 . 5 . 2 . 1 . 01 ,Honorarium PNS ,700000.00
1.20 . 1.20.03 . 03 . 05 . 5 . 2 . 1 . 01 . 02 ,Honorarium Tim Pengadaan Barang Dan Jasa ,700000.00,Honorarium tim pengadaan barang & jasa/ pejabat 
,,,pengadaan/pejabat penerima
,,,Honor pejabat pembuat komitmen
,,,"1 ok x 300.000,00 = 300.000,00"
,,,Honor pejabat pengadaan
,,,"1 ok x 250.000,00 = 250.000,00"
,,,Honor pejabat penerima
,,,"1 ok x 150.000,00 = 150.000,00"
1.20 . 1.20.03 . 03 . 05 . 5 . 2 . 2 ,Belanja Barang dan Jasa ,24500000.00
1.20 . 1.20.03 . 03 . 05 . 5 . 2 . 2 . 12 ,Belanja Pakaian Dinas dan Atributnya ,24500000.00
1.20 . 1.20.03 . 03 . 05 . 5 . 2 . 2 . 12 . 05 ,Belanja Pakaian Dinas Upacara (PDU) ,24500000.00,Belanja pakaian dinas upacara untuk anggota korsik
,,,Belanja pakaian dinas upacara anggota korsik
,,,"35 stel x 700.000,00 = 24.500.000,00"
1.20 . 1.20.03 . 05 ,Program Peningkatan Kapasitas Sumber Daya Aparatur ,25804900.00
1.20 . 1.20.03 . 05 . 02 ,Sosialisasi peraturan perundang-undangan ,25804900.00,Sumber Dana : 
,,,Lokasi Kegiatan : Kec. Bantul
,,,Keluaran :  Terlaksanannya bimbingan teknis keprotokolan
,,,Target:  40 orang
1.20 . 1.20.03 . 05 . 02 . 5 . 2 . 1 ,Belanja Pegawai ,730000.00
1.20 . 1.20.03 . 05 . 02 . 5 . 2 . 1 . 01 ,Honorarium PNS ,730000.00
1.20 . 1.20.03 . 05 . 02 . 5 . 2 . 1 . 01 . 01 ,Honorarium Panitia Pelaksana Kegiatan ,730000.00,Honor Panitia pelaksana kegiatan sosialisasi/bimtek
,,,Honor ketua
,,,"1 ok x 90.000,00 = 90.000,00"
,,,Honor Sekretaris
,,,"1 ok x 80.000,00 = 80.000,00"
,,,Honor anggota
,,,"8 ok x 70.000,00 = 560.000,00"
1.20 . 1.20.03 . 05 . 02 . 5 . 2 . 2 ,Belanja Barang dan Jasa ,25074900.00
1.20 . 1.20.03 . 05 . 02 . 5 . 2 . 2 . 01 ,Belanja Bahan Pakai Habis ,1424900.00
1.20 . 1.20.03 . 05 . 02 . 5 . 2 . 2 . 01 . 01 ,Belanja Alat Tulis Kantor ,1424900.00,Belanja Alat tulis Kantor
,,,Belanja ATK untuk sekretariat
,,,"1 ls x 224.900,00 = 224.900,00"
,,,Belanja ATK untuk peserta & narasumber
,,,"60 pkt x 20.000,00 = 1.200.000,00"
1.20 . 1.20.03 . 05 . 02 . 5 . 2 . 2 . 06 ,Belanja Cetak dan Penggandaan ,1550000.00
1.20 . 1.20.03 . 05 . 02 . 5 . 2 . 2 . 06 . 02 ,Belanja Penggandaan ,1550000.00,Belanja penggandaan kegiatan sosialisasi/bimtek
,,,Belanja penggandaan untuk sekretariat dan materi sosialisasi/ bimtek
,,,"12,400 lbr x 125,00 = 1.550.000,00"
1.20 . 1.20.03 . 05 . 02 . 5 . 2 . 2 . 07 ,Belanja Sewa Rumah/Gedung/Gudang/Parkir ,2500000.00
1.20 . 1.20.03 . 05 . 02 . 5 . 2 . 2 . 07 . 03 ,Belanja Sewa Ruang Rapat/Pertemuan ,2500000.00,Belanja sewa ruang rapat/ pertemuan
,,,Belanja sewa ruang sosialiasasi
,,,"2 hr x 1.250.000,00 = 2.500.000,00"
1.20 . 1.20.03 . 05 . 02 . 5 . 2 . 2 . 11 ,Belanja Makanan dan  Minuman ,7800000.00
1.20 . 1.20.03 . 05 . 02 . 5 . 2 . 2 . 11 . 05 ,Belanja Makanan dan Minuman Pelaksanaan Kegiatan ,7800000.00,Belanja makanan dan minuman kegiatan sosialisasi/bimtek
,,,Belanja makanan dan minuman kegiatan sosialiasi/ bimtek dgn  rinc 2 hari x 60 org
,,,"120 ok x 65.000,00 = 7.800.000,00"
1.20 . 1.20.03 . 05 . 02 . 5 . 2 . 2 . 35 ,"Jasa Narasumber, Tenaga Ahli, Yuri, Entry Data, Petugas Fogging dan Petugas Lapangan",11800000.00
1.20 . 1.20.03 . 05 . 02 . 5 . 2 . 2 . 35 . 01 ,Jasa Nara Sumber/Moderator/Tenaga Ahli ,8200000.00
,,,Honorarium Narasumber dan moderator
,,,Honor narasumber tingkat lokal 2 org x 2 jpl
,,,"4 jpl x 1.000.000,00 = 4.000.000,00"
,,,Honor narasumber 4 org x 2 jpl
,,,"8 jpl x 400.000,00 = 3.200.000,00"
,,,Honor moderator
,,,"4 jpl x 250.000,00 = 1.000.000,00"
1.20 . 1.20.03 . 05 . 02 . 5 . 2 . 2 . 35 . 05 ,Jasa Peserta Seminar/Simposium /Workshop/Sosialisasi ,3600000.00,Honorarium peserta sosialisasi/ bimtek
,,,Honor peserta sosialisasi/ bimtek keprotokolan 2 hr x60x Rp.30.000
,,,"120 oh x 30.000,00 = 3.600.000,00"
1.20 . 1.20.03 . 06 ,Program peningkatan pengembangan sistem pelaporan capaian kinerja dan keuangan,3200000.00
1.20 . 1.20.03 . 06 . 01 ,Penyusunan laporan capaian kinerja dan ikhtisar realisasi kinerja SKPD ,3200000.00,Sumber Dana : 
,,,Lokasi Kegiatan : Kec. bantul
,,,Keluaran :  Tersusunnya laporan capaian kinerja dan keuangan
,,,Target:  5 macam
1.20 . 1.20.03 . 06 . 01 . 5 . 2 . 1 ,Belanja Pegawai ,1280000.00
1.20 . 1.20.03 . 06 . 01 . 5 . 2 . 1 . 03 ,Uang Lembur ,1280000.00
1.20 . 1.20.03 . 06 . 01 . 5 . 2 . 1 . 03 . 01 ,Uang Lembur PNS ,1280000.00,Uang lembur PNS
,,,Uang lembur golongan III
,,,"64 ol x 15.000,00 = 960.000,00"
,,,Uang lembur golongan II
,,,"32 ol x 10.000,00 = 320.000,00"
1.20 . 1.20.03 . 06 . 01 . 5 . 2 . 2 ,Belanja Barang dan Jasa ,1920000.00
1.20 . 1.20.03 . 06 . 01 . 5 . 2 . 2 . 06 ,Belanja Cetak dan Penggandaan ,240000.00
1.20 . 1.20.03 . 06 . 01 . 5 . 2 . 2 . 06 . 02 ,Belanja Penggandaan ,240000.00,Belanja penggandaan
,,,"1,920 lb x 125,00 = 240.000,00"
1.20 . 1.20.03 . 06 . 01 . 5 . 2 . 2 . 11 ,Belanja Makanan dan  Minuman ,1680000.00
1.20 . 1.20.03 . 06 . 01 . 5 . 2 . 2 . 11 . 04 ,Belanja makanan dan minuman Lembur ,1680000.00,Belanja makanan dan minuman lembur
,,,"96 ol x 17.500,00 = 1.680.000,00"
1.20 . 1.20.03 . 16 ,Program peningkatan pelayanan kedinasan kepala daerah/wakil kepala daerah,61543625.00
1.20 . 1.20.03 . 16 . 02 ,Penerimaan kunjungan kerja pejabat negara/departemen/lembaga pemerintah non departemen/luar negeri,61543625.00,Sumber Dana : 
,,,Lokasi Kegiatan : Kec. Bantul
,,,Keluaran :  Kelancaran pelaksanaan penerimaan kunjungan kerja
,,,Target:  100 %
1.20 . 1.20.03 . 16 . 02 . 5 . 2 . 1 ,Belanja Pegawai ,10250000.00
1.20 . 1.20.03 . 16 . 02 . 5 . 2 . 1 . 03 ,Uang Lembur ,10250000.00
1.20 . 1.20.03 . 16 . 02 . 5 . 2 . 1 . 03 . 01 ,Uang Lembur PNS ,10250000.00,Uang lembur PNS
,,,Uang lembur Gol III : 11 org x 5x10
,,,"550 ol x 15.000,00 = 8.250.000,00"
,,,Uang lembur gol II : 4 org x 5 x 10
,,,"200 ol x 10.000,00 = 2.000.000,00"
1.20 . 1.20.03 . 16 . 02 . 5 . 2 . 2 ,Belanja Barang dan Jasa ,51293625.00
1.20 . 1.20.03 . 16 . 02 . 5 . 2 . 2 . 01 ,Belanja Bahan Pakai Habis ,1500000.00
1.20 . 1.20.03 . 16 . 02 . 5 . 2 . 2 . 01 . 01 ,Belanja Alat Tulis Kantor ,1500000.00,Belanja Alat Tulis Kantor
,,,"1 ls x 1.500.000,00 = 1.500.000,00"
1.20 . 1.20.03 . 16 . 02 . 5 . 2 . 2 . 02 ,Belanja Bahan/Material ,21875000.00
1.20 . 1.20.03 . 16 . 02 . 5 . 2 . 2 . 02 . 07 ,Belanja Cindera Mata ,20000000.00,Belanja cinderamata/ plakat
,,,Belanja cindera mata/ plakat
,,,"125 buah x 160.000,00 = 20.000.000,00"
1.20 . 1.20.03 . 16 . 02 . 5 . 2 . 2 . 02 . 12 ,Belanja alat-alat/perlengkapan ,1875000.00,Belanja tas
,,,Belanja tas perlengkapan cindera mata
,,,"125 buah x 15.000,00 = 1.875.000,00"
1.20 . 1.20.03 . 16 . 02 . 5 . 2 . 2 . 06 ,Belanja Cetak dan Penggandaan ,14793625.00
1.20 . 1.20.03 . 16 . 02 . 5 . 2 . 2 . 06 . 01 ,Belanja Cetak ,10625000.00,Belanja cetak buku selayang pandang
,,,Belanja cetak buku selayang pandang Kab. Bantul
,,,"125 buah x 85.000,00 = 10.625.000,00"
1.20 . 1.20.03 . 16 . 02 . 5 . 2 . 2 . 06 . 02 ,Belanja Penggandaan ,4168625.00,Belanja penggandaan
,,,"33,349 lbr x 125,00 = 4.168.625,00"
1.20 . 1.20.03 . 16 . 02 . 5 . 2 . 2 . 11 ,Belanja Makanan dan  Minuman ,13125000.00
1.20 . 1.20.03 . 16 . 02 . 5 . 2 . 2 . 11 . 04 ,Belanja makanan dan minuman Lembur ,13125000.00,Belanja makanan dan minuman lembur
,,,Belanja makanan dan minuman lembur gol III dan II
,,,"750 ol x 17.500,00 = 13.125.000,00"
1.19 . 1.20.03 . 17 ,Program pengembangan wawasan kebangsaan ,370870000.00
1.19 . 1.20.03 . 17 . 11 ,Penyelenggaraan Upacara Hari-hari Besar Nasional dan Hari Jadi Kabupaten,370870000.00,Sumber Dana : 
,,,Lokasi Kegiatan : Kec. Bantul
,,,Keluaran :  Terlaksanannya upacara peringatan Hari Jadi Kab. Bantul dan Hari Besar Nasional
,,,Target:  13 Kegiatan
1.19 . 1.20.03 . 17 . 11 . 5 . 2 . 1 ,Belanja Pegawai ,69685000.00
1.19 . 1.20.03 . 17 . 11 . 5 . 2 . 1 . 01 ,Honorarium PNS ,52735000.00
1.19 . 1.20.03 . 17 . 11 . 5 . 2 . 1 . 01 . 01 ,Honorarium Panitia Pelaksana Kegiatan ,51335000.00,Honorarium panitia/tim PeringatanHari Jadi Kab. Bantul ke 184
,,,Honorarium Anggota
,,,"21 org x 150.000,00 = 3.150.000,00"
,,,Honorarium sekretariat gol III
,,,"14 org x 100.000,00 = 1.400.000,00"
,,,Honorarium sekretariat gol II
,,,"7 org x 70.000,00 = 490.000,00"
,,,Honorarium Ketua Umum
,,,"1 org x 180.000,00 = 180.000,00"
,,,Honorarium Ketua
,,,"4 org x 170.000,00 = 680.000,00"
,,,Honorarium Sekretaris
,,,"2 org x 160.000,00 = 320.000,00"
,,,Honorarium pelindung
,,,"1 org x 200.000,00 = 200.000,00"
,,,Honorarium Penasehat
,,,"5 org x 190.000,00 = 950.000,00"
,,,Honorarium Panitia/ Tim  PeringatanHUT ke 70 RI
,,,Honorarium sekretariat gol II
,,,"3 org x 75.000,00 = 225.000,00"
,,,Honorarium sekretaris
,,,"2 org x 145.000,00 = 290.000,00"
,,,Honorarium anggota
,,,"15 org x 100.000,00 = 1.500.000,00"
,,,Honorarium sekretariat gol III
,,,"7 org x 85.000,00 = 595.000,00"
,,,Honorarium pelindung
,,,"1 org x 200.000,00 = 200.000,00"
,,,Honorarium penasehat
,,,"5 org x 180.000,00 = 900.000,00"
,,,Honorarium ketua
,,,"5 org x 170.000,00 = 850.000,00"
,,,"Honorarium panitia / tim pawai,drumband & karnaval"
,,,Honorarium sekretariat gol III
,,,"5 org x 85.000,00 = 425.000,00"
,,,Honorarium sekretarioat gol II
,,,"3 org x 75.000,00 = 225.000,00"
,,,Honorarium Ketua
,,,"3 org x 170.000,00 = 510.000,00"
,,,Honorarium sekretaris
,,,"2 org x 145.000,00 = 290.000,00"
,,,Honorarium anggota
,,,"10 org x 100.000,00 = 1.000.000,00"
,,,Honorarium pelindung
,,,"1 org x 200.000,00 = 200.000,00"
,,,Honorarium Penasehat
,,,"1 org x 180.000,00 = 180.000,00"
,,,Honorarium Panitia Pelaksana Upacara Hari Besar Nasional 
,,,dan Daerah
,,,Honorarium petugas upacara Hari Pahlawan  ( renungan 
,,,"suci,upacara hari pahlawan, ziarah)"
,,,"80 org/keg x 30.000,00 = 2.400.000,00"
,,,"Honorarium petugas lomba pawai, drumband & karnaval"
,,,"200 org/keg x 30.000,00 = 6.000.000,00"
,,,"Honorarium P3k lomba pawai, drumband & karnaval"
,,,"30 org/ keg x 30.000,00 = 900.000,00"
,,,Honorarium petugas kegiatan syawalan gubernur
,,,"50 org/keg x 30.000,00 = 1.500.000,00"
,,,Honorarium petugas upacara Hari kesaktian Pancasila
,,,"30 org/keg x 30.000,00 = 900.000,00"
,,,Honorarium petugas upacara Hari Sumpah Pemuda
,,,"10 org/keg x 30.000,00 = 300.000,00"
,,,Honorarium petugas upacara Harkitnas
,,,"30 org/keg x 30.000,00 = 900.000,00"
,,,Honorarium petugas upacara Hari Jadi ke 184 Kab. Bantul
,,,"60 orang/keg x 30.000,00 = 1.800.000,00"
,,,Honorarium petugas upacara HUT RI
,,,"185 org/keg x 30.000,00 = 5.550.000,00"
,,,"Honorarium petugas  keamanan  upacara , pawai, "
,,,karnaval & drumband
,,,"410 orang/Keg x 25.000,00 = 10.250.000,00"
,,,Honorarium petugas upacara otonomi daerah
,,,"30 org/ keg x 30.000,00 = 900.000,00"
,,,Honorarium petugas upacara Hardiknas
,,,"25 org/keg x 30.000,00 = 750.000,00"
,,,Honorarium  Pelatih upacara
,,,"59 Orang/Keg x 75.000,00 = 4.425.000,00"
1.19 . 1.20.03 . 17 . 11 . 5 . 2 . 1 . 01 . 02 ,Honorarium Tim Pengadaan Barang Dan Jasa ,1400000.00,Honorarium Tim Pengadaan Barang & Jasa
,,,Honorarium pejabat pembuat komitmen
,,,"2 ok x 300.000,00 = 600.000,00"
,,,Honorarium Pejabat Pengadaan
,,,"2 ok x 250.000,00 = 500.000,00"
,,,Honorarium pejabat penerima
,,,"2 ok x 150.000,00 = 300.000,00"
1.19 . 1.20.03 . 17 . 11 . 5 . 2 . 1 . 02 ,Honorarium Non PNS ,4650000.00
1.19 . 1.20.03 . 17 . 11 . 5 . 2 . 1 . 02 . 02 ,Honorarium Pegawai Honorer/Tidak Tetap ,4650000.00,Honorarium Penyelenggara Upacara
,,,Honorarium Petugas P3K Upacara Hari Pahlawan
,,,"5 org/keg x 30.000,00 = 150.000,00"
,,,"Honorarium petugas P3K keg. pawai, drumband & karnaval"
,,,"20 org/keg x 30.000,00 = 600.000,00"
,,,Honorarium petugas P3K Upacara Hapsak
,,,"5 org/keg x 30.000,00 = 150.000,00"
,,,Honorarium petugas upacara Sumpah Pemuda
,,,"30 org/keg x 30.000,00 = 900.000,00"
,,,Honorarium P3k Upacara Sumpah Pemuda
,,,"5 org/keg x 30.000,00 = 150.000,00"
,,,Honorarium petugas  P3k Upacara Harkitnas
,,,"10 orang/keg. x 30.000,00 = 300.000,00"
,,,Honorarium petugas P3K Hari jadi ke 184 Kab. Bantul
,,,"20 org/keg x 30.000,00 = 600.000,00"
,,,Honorarium petugas P3K HUT RI
,,,"10 org/keg x 30.000,00 = 300.000,00"
,,,Honorarium petugas P3K  Upacara Otonomi Daerah
,,,"5 Org/Keg x 30.000,00 = 150.000,00"
,,,Honorarium petugas upacara Hardiknas
,,,"25 orang/keg x 30.000,00 = 750.000,00"
,,,Honoarium Petugas P3k upacara Hardiknas
,,,"20 orang/Keg x 30.000,00 = 600.000,00"
1.19 . 1.20.03 . 17 . 11 . 5 . 2 . 1 . 03 ,Uang Lembur ,12300000.00
1.19 . 1.20.03 . 17 . 11 . 5 . 2 . 1 . 03 . 01 ,Uang Lembur PNS ,12300000.00,Uang lembur kegiatan upacara & lomba
,,,"Gol II  = 4x 6 x 10 keg 240 ok x 10.000,00 = 2.400.000,00"
,,,Uang lembur PNS  
,,," Gol IV & III = 11 org x 6x 10 keg 660 ol x 15.000,00 = 9.900.000,00"
1.19 . 1.20.03 . 17 . 11 . 5 . 2 . 2 ,Belanja Barang dan Jasa ,301185000.00
1.19 . 1.20.03 . 17 . 11 . 5 . 2 . 2 . 01 ,Belanja Bahan Pakai Habis ,23010000.00
1.19 . 1.20.03 . 17 . 11 . 5 . 2 . 2 . 01 . 01 ,Belanja Alat Tulis Kantor ,5460000.00,Belanja Alat Tulis Kantor
,,,ATK kegiatan Hari Jadi ke 184 Bantul
,,,"1 ls x 1.800.000,00 = 1.800.000,00"
,,,ATK kegiatan HUT RI ke 70
,,,"1 ls x 1.200.000,00 = 1.200.000,00"
,,,ATK Upacara Hardiknas & Harkitnas
,,,"1 ls x 460.000,00 = 460.000,00"
,,,ATK Hari Sumpah pemuda
,,,"1 ls x 250.000,00 = 250.000,00"
,,,"ATK kegiatan pawai, drumband & karnaval"
,,,"1 ls x 1.000.000,00 = 1.000.000,00"
,,,ATK Hari Otonomi Daerah
,,,"1 ls x 250.000,00 = 250.000,00"
,,,ATK Hari Kesaktian Pancasila
,,,"1 ls x 250.000,00 = 250.000,00"
,,,ATK syawalan gubernur
,,,"1 ls x 250.000,00 = 250.000,00"
1.19 . 1.20.03 . 17 . 11 . 5 . 2 . 2 . 01 . 09 ,"Belanja pembelian bendera,papan nama ",17550000.00,"Belanja bendera, papan nama dan bunga"
,,,Belanja bunga meja syawalan gubernur
,,,"7 bh x 100.000,00 = 700.000,00"
,,,Belanja bunga meja open house
,,,"1 ls x 1.500.000,00 = 1.500.000,00"
,,,Belanja bunga tabur dan bukhet
,,,"1 ls x 650.000,00 = 650.000,00"
,,,Belanja papan nama kec utk Hari Jadi ke 184
,,,"17 buah x 100.000,00 = 1.700.000,00"
,,,"Belanja bunga  untuk kegiatan hari Jadi ke 184 ( bunga meja, bunga tabur, buntal melati )"
,,,"1 ls x 8.000.000,00 = 8.000.000,00"
,,,"Belanja bunga meja, bukhet dan tabur HUT RI"
,,,"1 ls x 5.000.000,00 = 5.000.000,00"
1.19 . 1.20.03 . 17 . 11 . 5 . 2 . 2 . 02 ,Belanja Bahan/Material ,28250000.00
1.19 . 1.20.03 . 17 . 11 . 5 . 2 . 2 . 02 . 07 ,Belanja Cindera Mata ,20000000.00,Belanja cindera mata/ piala kejuaran
,,,Belanja cinderamata/ pila kejuaraan untuk Hari Jadi ke 184 dan HUT RI ke 70
,,,"1 bjj x 20.000.000,00 = 20.000.000,00"
1.19 . 1.20.03 . 17 . 11 . 5 . 2 . 2 . 02 . 08 ,Belanja Bahan Makanan ,8250000.00,Belanja bahan makanan untuk kegiatan Hari Jadi ke 184 Kab. Bantul
,,,Untuk kegiatan sie silaturohmi
,,,"1 ls x 5.000.000,00 = 5.000.000,00"
,,,Untuk kegiatan sie bhakti sosial
,,,"1 ls x 2.500.000,00 = 2.500.000,00"
,,,Untuk kegiatan sie olahraga
,,,"1 ls x 750.000,00 = 750.000,00"
1.19 . 1.20.03 . 17 . 11 . 5 . 2 . 2 . 03 ,Belanja Jasa Kantor ,17800000.00
1.19 . 1.20.03 . 17 . 11 . 5 . 2 . 2 . 03 . 14 ,Belanja Dekorasi ,17000000.00,Belanja dekorasi kegiatan
,,,Kegiatan  Hari Jadi Kab. Bantul ( baliho)
,,,"1 ls x 9.500.000,00 = 9.500.000,00"
,,,Kegiatan sarasehan Hari jadi
,,,"1 ls x 1.000.000,00 = 1.000.000,00"
,,,Kegiatan HUT RI ( baliho)
,,,"1 ls x 5.000.000,00 = 5.000.000,00"
,,,Kegiatan syawalan gubernur
,,,"1 ls x 1.500.000,00 = 1.500.000,00"
1.19 . 1.20.03 . 17 . 11 . 5 . 2 . 2 . 03 . 15 ,Belanja Publikasi ,800000.00,Belanja publikasi/ siaran radio
,,,Belanja siaran kegiatan Hari jadi
,,,"1 kali x 400.000,00 = 400.000,00"
,,,Belanja siaran kegiatan HUt RI
,,,"1 kali x 400.000,00 = 400.000,00"
1.19 . 1.20.03 . 17 . 11 . 5 . 2 . 2 . 06 ,Belanja Cetak dan Penggandaan ,27900000.00
1.19 . 1.20.03 . 17 . 11 . 5 . 2 . 2 . 06 . 01 ,Belanja Cetak ,18850000.00,Belanja cetak kegiatan
,,,Cetak protap Hari jadi
,,,"100 bk x 7.500,00 = 750.000,00"
,,,Cetak protap HUT RI
,,,"100 bk x 10.000,00 = 1.000.000,00"
,,,Cetak undangan Hari Jadi & stiker
,,,"1,000 lbr x 4.500,00 = 4.500.000,00"
,,,Cetak undangan HUT RI
,,,"4,500 lbr x 1.000,00 = 4.500.000,00"
,,,Cetak undangan syawalan gubernur
,,,"3,000 lbr x 2.200,00 = 6.600.000,00"
,,,"Cetak piagam, nomer, id card"
,,,"1 ls x 1.500.000,00 = 1.500.000,00"
1.19 . 1.20.03 . 17 . 11 . 5 . 2 . 2 . 06 . 02 ,Belanja Penggandaan ,9050000.00,Belanja penggandaan
,,,Penggandaan HariJadi
,,,"16,000 lb x 125,00 = 2.000.000,00"
,,,Penggandaan HUT RI
,,,"16,000 lb x 125,00 = 2.000.000,00"
,,,Penggandaan Hari kesaktian Pancasila
,,,"2,000 lb x 125,00 = 250.000,00"
,,,Penggandaan Hari sumpah Pemuda
,,,"2,000 lb x 125,00 = 250.000,00"
,,,Penggandaan Hari Pahlawan
,,,"3,200 lb x 125,00 = 400.000,00"
,,,Penggandaan Hardiknas
,,,"6,000 lbr x 125,00 = 750.000,00"
,,,Penggandaan Harkitnas
,,,"5,200 lb x 125,00 = 650.000,00"
,,,Penggandaan Otonomi Daerah
,,,"2,000 lb x 125,00 = 250.000,00"
,,,Penggandaan Syawalan Gubernur
,,,"4,000 lb x 125,00 = 500.000,00"
,,,"Penggandaan pawai, drumband & karnaval"
,,,"16,000 lb x 125,00 = 2.000.000,00"
1.19 . 1.20.03 . 17 . 11 . 5 . 2 . 2 . 08 ,Belanja Sewa Sarana Mobilitas ,1500000.00
1.19 . 1.20.03 . 17 . 11 . 5 . 2 . 2 . 08 . 01 ,Belanja Sewa Sarana Mobilitas Darat ,1500000.00,Belanja sewa sarana mobilitas darat
,,,Belanja sewa sarana mobilitas darat untuk anggota korsik
,,,"1 ls x 1.500.000,00 = 1.500.000,00"
1.19 . 1.20.03 . 17 . 11 . 5 . 2 . 2 . 10 ,Belanja Sewa Perlengkapan dan Peralatan Kantor ,32200000.00
1.19 . 1.20.03 . 17 . 11 . 5 . 2 . 2 . 10 . 06 ,Belanja Sewa Pakaian Adat/Tradisional ,30700000.00,Belanja sewa pakaian  adat/ tradisional Hari Jadi
,,,untuk bregodo kecamatan
,,,"17 kec x 1.000.000,00 = 17.000.000,00"
,,,untuk pembawa jodang
,,,"26 org x 100.000,00 = 2.600.000,00"
,,,untuk pemandu acara
,,,"18 org x 200.000,00 = 3.600.000,00"
,,,untuk petugas upacara
,,,"30 org x 100.000,00 = 3.000.000,00"
,,,untuk penerima tamu
,,,"30 org x 150.000,00 = 4.500.000,00"
1.19 . 1.20.03 . 17 . 11 . 5 . 2 . 2 . 10 . 13 ,Belanja sewa peralatan dan perlengkapan kegiatan ,1500000.00,Belanja sewa peralatan  dan perlengkapan kegiatan
,,,Kegiatan hari HUT RI
,,,"1 ls x 750.000,00 = 750.000,00"
,,,Kegiatan Hari Pahlawan
,,,"1 keg x 750.000,00 = 750.000,00"
1.19 . 1.20.03 . 17 . 11 . 5 . 2 . 2 . 11 ,Belanja Makanan dan  Minuman ,27815000.00
1.19 . 1.20.03 . 17 . 11 . 5 . 2 . 2 . 11 . 02 ,Belanja Makanan Dan Minuman Rapat ,3315000.00,Belanja makan dan minuman rapat
,,,Belanja makan & minum  rapat 13 x 30org x 8.500
,,,"390 or x 8.500,00 = 3.315.000,00"
1.19 . 1.20.03 . 17 . 11 . 5 . 2 . 2 . 11 . 04 ,Belanja makanan dan minuman Lembur ,15750000.00,Belanja makanan dan minuman lembur kegiatan
,,,Belanja makanan & minuman lembur kegiatan
,,,"900 ol x 17.500,00 = 15.750.000,00"
1.19 . 1.20.03 . 17 . 11 . 5 . 2 . 2 . 11 . 05 ,Belanja Makanan dan Minuman Pelaksanaan Kegiatan ,8750000.00,"Belanja makanan & minuman kegiatan pawai, drumband & karnaval"
,,,"Baelanja makanan & minuman kegiatan pawai, drumband & karnaval "
,,,2 hari x 250org x Rp. 17.500
,,,"500 ok x 17.500,00 = 8.750.000,00"
1.19 . 1.20.03 . 17 . 11 . 5 . 2 . 2 . 14 ,Belanja Pakaian khusus dan hari-hari tertentu ,15000000.00
1.19 . 1.20.03 . 17 . 11 . 5 . 2 . 2 . 14 . 04 ,Belanja Pakaian Olahraga ,15000000.00,"Belanja pakaian olahraga untuk kegiatan pawai, drumband & karnaval"
,,,Belanja pakaian olahraga untuk petugas & yuri
,,,"200 ptng x 75.000,00 = 15.000.000,00"
1.19 . 1.20.03 . 17 . 11 . 5 . 2 . 2 . 35 ,"Jasa Narasumber, Tenaga Ahli, Yuri, Entry Data, Petugas Fogging dan Petugas Lapangan",10660000.00
1.19 . 1.20.03 . 17 . 11 . 5 . 2 . 2 . 35 . 01 ,Jasa Nara Sumber/Moderator/Tenaga Ahli ,6160000.00,Honorarium narasumber
,,,Narasumber sarasehan Hari jadi
,,,"4 jpl x 750.000,00 = 3.000.000,00"
,,,Honorarium qori sarasehan
,,,"2 org/keg x 100.000,00 = 200.000,00"
,,,Honorarium petugas doa HUT RI
,,,"10 org/keg x 100.000,00 = 1.000.000,00"
,,,Honorarium qori  & doa
,,,"2 org/keg x 150.000,00 = 300.000,00"
,,,Moderator sarasehan
,,,"2 jpl x 250.000,00 = 500.000,00"
,,,Narasumber siaran
,,,"2 kali x 80.000,00 = 160.000,00"
,,,Honorarium pemandu upacara Hari Jadi
,,,"4 jpl x 250.000,00 = 1.000.000,00"
1.19 . 1.20.03 . 17 . 11 . 5 . 2 . 2 . 35 . 02 ,Jasa Yuri Perlombaan/Pelatih ,4500000.00,Honorarium yuri perlombaan
,,,Yuri perlombaan dalam rangka Hari jadi
,,,"10 ok x 100.000,00 = 1.000.000,00"
,,,Yuri perlombaan HUT RI
,,,"35 ok x 100.000,00 = 3.500.000,00"
1.19 . 1.20.03 . 17 . 11 . 5 . 2 . 2 . 37 ,Uang Untuk Diberikan Kepada Pihak Ketiga/Masyarakat ,94500000.00
1.19 . 1.20.03 . 17 . 11 . 5 . 2 . 2 . 37 . 01 ,Uang Untuk Diberikan Kepada Pihak Ketiga/Masyarakat ,94500000.00,Hadiah Lomba kejuaraan Pawai
,,,Hadiah juara 1 Lomba pawai
,,,"6 katgri x 1.250.000,00 = 7.500.000,00"
,,,Hadiah juara Harapan 2 Lomba pawai
,,,"6 ktgri x 400.000,00 = 2.400.000,00"
,,,Hadiah juara Harapan 3 Lomba pawai
,,,"6 ktgri x 250.000,00 = 1.500.000,00"
,,,Hadiah juara 2 Lomba pawai
,,,"6 ktgri x 1.000.000,00 = 6.000.000,00"
,,,Hadiah juara 3 Lomba pawai
,,,"6 ktgri x 750.000,00 = 4.500.000,00"
,,,Hadiah juara harapan I Lomba pawai
,,,"6 ktgri x 500.000,00 = 3.000.000,00"
,,,Hadiah Lomba kejuaraan Drumband
,,,Juara Harapan 2 Lomba Drumband
,,,"3 ktgri x 1.000.000,00 = 3.000.000,00"
,,,Juara Harapan 3 Lomba Drumband
,,,"3 ktgri x 500.000,00 = 1.500.000,00"
,,,Juara 2 Lomba Drumband
,,,"3 ktgri x 2.000.000,00 = 6.000.000,00"
,,,Juara 3 Lomba Drumband
,,,"3 ktgri x 1.750.000,00 = 5.250.000,00"
,,,Juara Harapan 1 Lomba Drumband
,,,"3 ktgri x 1.250.000,00 = 3.750.000,00"
,,,Juara 1 Lomba Drumband
,,,"3 ktgri x 2.500.000,00 = 7.500.000,00"
,,,Hadiah Mayoret Terbaik
,,,Hadiah Mayoret Terbaik 2
,,,"3 ktgri x 300.000,00 = 900.000,00"
,,,Hadiah Mayoret Terbaik 3
,,,"3 ktgri x 250.000,00 = 750.000,00"
,,,Hadiah Mayoret Terbaik 1
,,,"3 ktgri x 400.000,00 = 1.200.000,00"
,,,Hadiah Lomba Karnaval
,,,Hadiah Juara Harapan 2 Lomba karnaval
,,,"2 ktgri x 1.000.000,00 = 2.000.000,00"
,,,Hadiah Juara Harapan 3  Lomba karnaval
,,,"2 ktgri x 750.000,00 = 1.500.000,00"
,,,Hadiah Juara 2 Lomba karnaval
,,,"2 ktgri x 2.500.000,00 = 5.000.000,00"
,,,Hadiah Juara 3 Lomba karnaval
,,,"2 ktgri x 2.000.000,00 = 4.000.000,00"
,,,Hadiah Juara Harapan 1 Lomba karnaval
,,,"2 ktgri x 1.500.000,00 = 3.000.000,00"
,,,Hadiah Juara 1 Lomba karnaval
,,,"2  ktgri x 3.000.000,00 = 6.000.000,00"
,,,Hadiah Lomba Bregodo
,,,Juara 2 Lomba bregodo
,,,"1 ktgri x 2.000.000,00 = 2.000.000,00"
,,,Juara 3 Lomba bregodo
,,,"1 ktgri x 1.750.000,00 = 1.750.000,00"
,,,Juara 1 Lomba bregodo
,,,"1 ktgri x 2.500.000,00 = 2.500.000,00"
,,,Hadiah Lomba Mobil hias
,,,Juara Harapan  2 Lomba Mobil hias
,,,"1 ktgri x 1.500.000,00 = 1.500.000,00"
,,,Juara Harapan  3 Lomba Mobil hias
,,,"1 ktgri x 1.250.000,00 = 1.250.000,00"
,,,Juara 2 Lomba Mobil hias
,,,"1 ktgri x 2.500.000,00 = 2.500.000,00"
,,,Juara 3 Lomba Mobil hias
,,,"1 ktgri x 2.000.000,00 = 2.000.000,00"
,,,Juara Harapan  1 Lomba Mobil hias
,,,"1  ktgri x 1.750.000,00 = 1.750.000,00"
,,,Juara 1 Lomba Mobil hias
,,,"1 ktgri x 3.000.000,00 = 3.000.000,00"
1.19 . 1.20.03 . 17 . 11 . 5 . 2 . 2 . 38 ,Belanja Jasa Pentas/Pertunjukan ,22550000.00
1.19 . 1.20.03 . 17 . 11 . 5 . 2 . 2 . 38 . 01 ,Belanja Jasa Pentas/Pertunjukan ,22550000.00,Belanja jasa pentas kegiatan
,,,Jasa pentas kerawitan untuk Hari Jadi
,,,"1 ls x 2.500.000,00 = 2.500.000,00"
,,,Jasa pentas group paduan suara upacara HUT RI di lap. Paseban
,,,"1 ls x 1.250.000,00 = 1.250.000,00"
,,,Jasa pentas group paduan suara upacara HUT RI di Lap. Trirenggo
,,,"1 ls x 4.500.000,00 = 4.500.000,00"
,,,Belanja jasa pentas group paduan suara upacara Hari Sumpah Pemuda
,,,"1 ls x 900.000,00 = 900.000,00"
,,,Jasa pentas group paduan suara upacara Hari Otonomi Daerah
,,,"1 ls x 900.000,00 = 900.000,00"
,,,Jasa pentas paduan suara upacara Hardiknas
,,,"1 ls x 1.200.000,00 = 1.200.000,00"
,,,Jasa pentas paduan suara upacara Harkitnas
,,,"1 ls x 900.000,00 = 900.000,00"
,,,Jasa pentas grup kerawaitan Sarasehan Hari Jadi
,,,"1 ls x 1.500.000,00 = 1.500.000,00"
,,,Jasa pentas grup kerawitan syawalan Gubernur
,,,"1 ls x 2.000.000,00 = 2.000.000,00"
,,,Jasa pentas grup kerawitan Open House
,,,"3 ls x 2.000.000,00 = 6.000.000,00"
,,,Jasa pentas group paduan suara upacara Hari pahlawan
,,,"1 ls x 900.000,00 = 900.000,00"
1.06 . 1.20.03 . 21 ,Program perencanaan pembangunan daerah ,4000000.00
1.06 . 1.20.03 . 21 . 33 ,Penyusunan Rencana Kerja (Renja) SKPD ,4000000.00,Sumber Dana : 
,,,Lokasi Kegiatan : Kec. Bantul
,,,Keluaran :  Tesusunya kebijakan & perencanaan kerja 1 tahun
,,,Target:  1 kali
1.06 . 1.20.03 . 21 . 33 . 5 . 2 . 1 ,Belanja Pegawai ,1740000.00
1.06 . 1.20.03 . 21 . 33 . 5 . 2 . 1 . 01 ,Honorarium PNS ,1740000.00
1.06 . 1.20.03 . 21 . 33 . 5 . 2 . 1 . 01 . 01 ,Honorarium Panitia Pelaksana Kegiatan ,1740000.00,Honorarium panitia penyusun renstra
,,,Ketua Tim /panitia
,,,"2 ol x 90.000,00 = 180.000,00"
,,,Sekretaris Tim / Panitia
,,,"2 ol x 80.000,00 = 160.000,00"
,,,Anggota tim/ panitia
,,,"20 ob x 70.000,00 = 1.400.000,00"
1.06 . 1.20.03 . 21 . 33 . 5 . 2 . 2 ,Belanja Barang dan Jasa ,2260000.00
1.06 . 1.20.03 . 21 . 33 . 5 . 2 . 2 . 01 ,Belanja Bahan Pakai Habis ,570000.00
1.06 . 1.20.03 . 21 . 33 . 5 . 2 . 2 . 01 . 01 ,Belanja Alat Tulis Kantor ,570000.00,Belanja Alat Tulis Kantor
,,,"1 ls x 570.000,00 = 570.000,00"
1.06 . 1.20.03 . 21 . 33 . 5 . 2 . 2 . 06 ,Belanja Cetak dan Penggandaan ,840000.00
1.06 . 1.20.03 . 21 . 33 . 5 . 2 . 2 . 06 . 02 ,Belanja Penggandaan ,840000.00,Belanja penggandaan
,,,"6,720 lbr x 125,00 = 840.000,00"
1.06 . 1.20.03 . 21 . 33 . 5 . 2 . 2 . 11 ,Belanja Makanan dan  Minuman ,850000.00
1.06 . 1.20.03 . 21 . 33 . 5 . 2 . 2 . 11 . 02 ,Belanja Makanan Dan Minuman Rapat ,850000.00,Belanja makanan dan minuman rapat penyusunan renstra
,,,Belanja makanan dan minuman rapat
,,,"100 or x 8.500,00 = 850.000,00"
1.20 . 1.20.03 . 28 ,Program Peningkatan Kapasitas Kinerja Aparatur Pemerintahan ,38490000.00
1.20 . 1.20.03 . 28 . 09 ,Peningkatan keterampilan korsik ,38490000.00,Sumber Dana : 
,,,Lokasi Kegiatan : Kec. Bantul
,,,Keluaran :  Kesiapan petugas korsik pemda dalam pelaksanaan kegiatan
,,,Target:  22 kegiatan
1.20 . 1.20.03 . 28 . 09 . 5 . 2 . 1 ,Belanja Pegawai ,28160000.00
1.20 . 1.20.03 . 28 . 09 . 5 . 2 . 1 . 01 ,Honorarium PNS ,28160000.00
1.20 . 1.20.03 . 28 . 09 . 5 . 2 . 1 . 01 . 01 ,Honorarium Panitia Pelaksana Kegiatan ,28160000.00,Honorarium panitia pelaksana kegiatan korsik
,,,Honor kondukter 2 org x 11 bln
,,,"22 ob x 50.000,00 = 1.100.000,00"
,,,Honor pelatih korsik 3 org x 11 bln
,,,"33 ob x 200.000,00 = 6.600.000,00"
,,,Honor pembina 3 org x 11 bln
,,,"33 ob x 80.000,00 = 2.640.000,00"
,,,Honor peniup terompet 7 org x 11 bln
,,,"77 ob x 60.000,00 = 4.620.000,00"
,,,Honor penabuh perkusi 24 org x 11 bln
,,,"264 ob x 50.000,00 = 13.200.000,00"
1.20 . 1.20.03 . 28 . 09 . 5 . 2 . 2 ,Belanja Barang dan Jasa ,10330000.00
1.20 . 1.20.03 . 28 . 09 . 5 . 2 . 2 . 06 ,Belanja Cetak dan Penggandaan ,1230000.00
1.20 . 1.20.03 . 28 . 09 . 5 . 2 . 2 . 06 . 02 ,Belanja Penggandaan ,1230000.00,Belanja penggandaan
,,,Belanja penggandaan kegiatan korsik
,,,"9,840 lbr x 125,00 = 1.230.000,00"
1.20 . 1.20.03 . 28 . 09 . 5 . 2 . 2 . 11 ,Belanja Makanan dan  Minuman ,9100000.00
1.20 . 1.20.03 . 28 . 09 . 5 . 2 . 2 . 11 . 05 ,Belanja Makanan dan Minuman Pelaksanaan Kegiatan ,9100000.00,Belanja makanan dan minuman pelaksanaan kegiatan gladi & upacara
,,,"Belanja makanan dan minuman pelaksanaan keg. gladi & upacara 40 org x 13 x Rp. 17.500,00"
,,,"520 ok x 17.500,00 = 9.100.000,00"
,,SURPLUS / (DEFISIT) ,"(672.838.275,00)"
